5448, 512, 382
6492, 512, 435
7064, 512, 487
10608, 1024, 633
7148, 512, 487
7100, 512, 479
1732, 128, 177
3220, 256, 269
2840, 256, 232
3036, 256, 244
1444, 128, 150
10352, 1024, 601
9748, 1024, 563
1504, 128, 153
5192, 512, 352
11524, 1024, 681
6076, 512, 427
2804, 256, 232
5444, 512, 380
7336, 512, 510
2004, 256, 168
6716, 512, 444
3104, 256, 255
4704, 512, 324
1616, 128, 148
7044, 512, 483
6816, 512, 460
3480, 256, 288
648, 64, 88
5188, 512, 352
3508, 256, 293
3460, 256, 289
6756, 512, 453
6672, 512, 460
2784, 256, 225
2800, 256, 224
6616, 512, 451
5652, 512, 398
2880, 256, 237
2944, 256, 236
3048, 256, 252
7432, 512, 511
4732, 512, 326
7288, 512, 503
12444, 1024, 749
2752, 256, 223
608, 64, 82
2436, 256, 206
3056, 256, 248
7100, 512, 486
7200, 512, 500
12216, 1024, 730
7096, 512, 478
2756, 256, 222
6692, 512, 464
6316, 512, 424
6772, 512, 462
3628, 256, 295
6804, 512, 464
6768, 512, 457
6912, 512, 472
1428, 128, 147
2288, 256, 191
3520, 256, 285
2296, 256, 189
1452, 128, 149
3156, 256, 259
6324, 512, 427
4724, 512, 323
3020, 256, 245
6348, 512, 427
1344, 128, 138
5216, 512, 363
5836, 512, 404
2916, 256, 240
5752, 512, 409
3152, 256, 261
6972, 512, 473
1260, 128, 128
1292, 128, 130
2396, 256, 202
5340, 512, 373
4000, 256, 328
4268, 512, 282
3972, 256, 328
10732, 1024, 630
6160, 512, 416
260, 32, 49
2784, 256, 226
3136, 256, 257
6164, 512, 407
2440, 256, 201
3036, 256, 255
2416, 256, 205
2584, 256, 203
7484, 512, 507
7464, 512, 517
6128, 512, 439
6772, 512, 452
6664, 512, 447
6888, 512, 465
7080, 512, 485
6780, 512, 457
3176, 256, 259
3008, 256, 242
2872, 256, 235
6924, 512, 468
1420, 128, 141
6384, 512, 437
2948, 256, 238
1348, 128, 137
7248, 512, 511
3104, 256, 260
3048, 256, 255
6308, 512, 422
1512, 128, 162
3176, 256, 266
6396, 512, 431
1196, 128, 122
2016, 256, 165
2324, 256, 195
10332, 1024, 601
1016, 128, 109
3060, 256, 251
4632, 512, 308
5468, 512, 386
2736, 256, 218
6412, 512, 434
3204, 256, 266
3364, 256, 263
3256, 256, 271
1748, 128, 162
3008, 256, 246
1448, 128, 151
6560, 512, 442
1280, 128, 131
6472, 512, 447
1248, 128, 130
1412, 128, 146
5504, 512, 388
3284, 256, 269
7220, 512, 498
3864, 256, 310
7180, 512, 495
1988, 256, 165
2780, 256, 228
3036, 256, 245
6072, 512, 427
2780, 256, 221
3052, 256, 248
5064, 512, 347
2248, 256, 192
6712, 512, 451
3232, 256, 266
4872, 512, 332
1652, 128, 172
2300, 256, 193
7464, 512, 521
12332, 1024, 742
340, 32, 60
3100, 256, 255
6336, 512, 427
3364, 256, 278
6288, 512, 417
2776, 256, 223
7056, 512, 481
11180, 1024, 642
1456, 128, 153
3268, 256, 269
580, 64, 80
2784, 256, 229
7296, 512, 504
2720, 256, 225
9576, 1024, 541
3004, 256, 241
2556, 256, 220
3148, 256, 262
6600, 512, 446
5292, 512, 364
4996, 512, 335
6508, 512, 450
6076, 512, 420
6376, 512, 431
5308, 512, 369
2248, 256, 185
3028, 256, 245
684, 64, 96
12016, 1024, 708
6544, 512, 444
3136, 256, 253
6440, 512, 439
4616, 512, 316
7060, 512, 487
6356, 512, 429
6596, 512, 451
3392, 256, 283
3520, 256, 292
2792, 256, 228
1212, 128, 132
3104, 256, 258
6252, 512, 424
424, 32, 69
5440, 512, 381
5340, 512, 371
4512, 512, 299
3184, 256, 264
2436, 256, 206
2348, 256, 198
3084, 256, 256
3532, 256, 295
7080, 512, 486
2868, 256, 234
11984, 1024, 710
2988, 256, 243
1452, 128, 151
328, 32, 57
7080, 512, 485
1396, 128, 140
4732, 512, 321
11648, 1024, 688
2512, 256, 216
7324, 512, 504
4800, 512, 332
2432, 256, 211
5384, 512, 370
6640, 512, 451
3036, 256, 248
2344, 256, 195
3316, 256, 280
788, 64, 98
5328, 512, 370
5508, 512, 390
2660, 256, 211
5468, 512, 387
7192, 512, 497
3224, 256, 270
5724, 512, 409
7216, 512, 499
6184, 512, 438
5476, 512, 383
3480, 256, 289
880, 64, 108
2360, 256, 200
3264, 256, 262
5192, 512, 358
3100, 256, 256
3076, 256, 250
5484, 512, 384
7088, 512, 478
2328, 256, 195
1484, 128, 150
2304, 256, 194
4836, 512, 328
6088, 512, 399
3192, 256, 260
5696, 512, 401
6352, 512, 434
7120, 512, 487
3024, 256, 246
2892, 256, 241
6864, 512, 469
2236, 256, 189
7392, 512, 512
3936, 256, 320
3524, 256, 290
6976, 512, 475
1480, 128, 154
6824, 512, 460
7304, 512, 490
13608, 1024, 770
5320, 512, 363
11964, 1024, 708
1028, 128, 111
6128, 512, 412
2912, 256, 241
6908, 512, 465
2752, 256, 222
9412, 1024, 521
11796, 1024, 686
1244, 128, 128
3372, 256, 276
6596, 512, 460
912, 64, 110
1308, 128, 134
6736, 512, 450
5048, 512, 348
3216, 256, 266
2496, 256, 210
3340, 256, 277
3008, 256, 242
6424, 512, 438
1940, 256, 154
1540, 128, 155
2436, 256, 206
4496, 512, 296
6400, 512, 459
5276, 512, 361
2556, 256, 216
3008, 256, 252
7524, 512, 514
5432, 512, 378
6360, 512, 431
2856, 256, 229
5300, 512, 370
5656, 512, 392
10576, 1024, 625
6852, 512, 461
3400, 256, 266
3064, 256, 250
3012, 256, 253
2312, 256, 196
3132, 256, 260
3196, 256, 267
3144, 256, 256
3912, 256, 318
6320, 512, 426
5352, 512, 372
3096, 256, 255
7152, 512, 498
3004, 256, 248
6148, 512, 415
7152, 512, 488
3216, 256, 261
1496, 128, 149
4476, 512, 295
712, 64, 96
5008, 512, 342
5316, 512, 370
6204, 512, 423
5576, 512, 388
1348, 128, 139
1280, 128, 128
7204, 512, 501
5428, 512, 378
3628, 256, 295
5124, 512, 350
5188, 512, 360
1244, 128, 133
6180, 512, 407
6164, 512, 408
4712, 512, 327
5760, 512, 411
6412, 512, 436
2432, 256, 205
6436, 512, 439
6984, 512, 471
5312, 512, 368
1360, 128, 140
2692, 256, 212
2808, 256, 230
6740, 512, 452
6408, 512, 434
5624, 512, 395
1416, 128, 148
6572, 512, 454
11300, 1024, 649
3224, 256, 270
6452, 512, 442
560, 64, 75
3808, 256, 287
7060, 512, 482
2456, 256, 211
5404, 512, 376
5424, 512, 375
2572, 256, 199
2672, 256, 214
7228, 512, 500
7036, 512, 474
6340, 512, 424
2848, 256, 233
2248, 256, 192
3092, 256, 251
9784, 1024, 566
10132, 1024, 584
684, 64, 90
3208, 256, 269
2952, 256, 246
1144, 128, 123
7324, 512, 503
3124, 256, 262
1332, 128, 139
1780, 128, 181
1648, 128, 168
7184, 512, 495
6396, 512, 432
2772, 256, 226
7684, 512, 520
1448, 128, 148
3208, 256, 256
2220, 256, 188
7040, 512, 472
1652, 128, 170
5368, 512, 371
1472, 128, 153
11624, 1024, 681
7156, 512, 488
1348, 128, 139
5684, 512, 404
3136, 256, 257
3408, 256, 284
3164, 256, 264
3364, 256, 288
1068, 128, 117
5316, 512, 371
5312, 512, 365
5572, 512, 401
3044, 256, 247
7116, 512, 483
6624, 512, 456
3108, 256, 256
5604, 512, 389
3704, 256, 307
7080, 512, 486
6580, 512, 446
5588, 512, 380
1656, 128, 167
3292, 256, 272
10376, 1024, 605
5520, 512, 384
1124, 64, 133
1372, 128, 138
4604, 512, 317
6092, 512, 402
6512, 512, 441
1196, 128, 128
6360, 512, 431
3456, 256, 284
3060, 256, 250
2784, 256, 226
1912, 128, 182
7024, 512, 476
1368, 128, 144
6460, 512, 440
7292, 512, 506
5320, 512, 367
6816, 512, 465
5412, 512, 375
3160, 256, 258
5248, 512, 364
1548, 128, 166
5276, 512, 367
3140, 256, 253
7128, 512, 493
3300, 256, 273
5468, 512, 379
2960, 256, 240
6056, 512, 405
6992, 512, 480
7348, 512, 501
4252, 256, 334
3848, 256, 296
9916, 1024, 555
3156, 256, 256
5456, 512, 384
4120, 256, 334
3456, 256, 274
6640, 512, 444
6528, 512, 457
3016, 256, 241
2540, 256, 219
7224, 512, 493
6720, 512, 462
6836, 512, 460
10420, 1024, 606
3088, 256, 250
7120, 512, 487
2944, 256, 241
2440, 256, 211
3000, 256, 241
3360, 256, 267
6752, 512, 473
5104, 512, 350
3240, 256, 274
2188, 256, 177
5312, 512, 366
3164, 256, 260
548, 64, 73
6424, 512, 435
5436, 512, 380
2164, 256, 184
3368, 256, 277
1692, 128, 156
2944, 256, 239
3228, 256, 270
6696, 512, 460
3120, 256, 253
1904, 128, 189
7376, 512, 511
3196, 256, 268
3076, 256, 251
7280, 512, 508
1732, 128, 173
1544, 128, 152
1348, 128, 139
7576, 512, 514
6712, 512, 458
11712, 1024, 694
7176, 512, 498
6884, 512, 474
3188, 256, 264
7136, 512, 495
4660, 512, 318
1304, 128, 135
5696, 512, 409
2552, 256, 210
2756, 256, 220
7284, 512, 497
4656, 512, 319
5324, 512, 367
5716, 512, 402
5328, 512, 368
5140, 512, 349
2472, 256, 208
3124, 256, 261
3580, 256, 298
5368, 512, 373
1880, 128, 179
6320, 512, 424
4696, 512, 322
1148, 128, 114
2752, 256, 223
5544, 512, 380
6332, 512, 429
3108, 256, 258
6372, 512, 435
4600, 512, 311
4588, 512, 311
3380, 256, 274
3080, 256, 254
3236, 256, 262
3272, 256, 271
5752, 512, 405
1464, 128, 155
12024, 1024, 719
7136, 512, 488
3620, 256, 292
7156, 512, 489
3220, 256, 270
4688, 512, 321
1552, 128, 160
5104, 512, 349
2008, 256, 164
3172, 256, 261
1344, 128, 135
5416, 512, 379
6708, 512, 463
1628, 128, 164
4528, 512, 302
2248, 256, 188
6388, 512, 432
2464, 256, 206
5592, 512, 372
1360, 128, 143
6332, 512, 423
4652, 512, 316
5908, 512, 413
712, 64, 93
2916, 256, 243
3308, 256, 268
3460, 256, 286
3028, 256, 247
3196, 256, 266
2704, 256, 217
1476, 128, 146
3236, 256, 272
1036, 128, 111
4920, 512, 342
3288, 256, 269
5136, 512, 353
2580, 256, 213
6984, 512, 466
10744, 1024, 638
6988, 512, 481
864, 64, 106
364, 32, 60
7196, 512, 499
4680, 512, 325
2768, 256, 225
5148, 512, 349
2340, 256, 199
10272, 1024, 593
3008, 256, 242
4324, 512, 291
6044, 512, 400
1132, 128, 121
5428, 512, 382
6960, 512, 480
2804, 256, 226
1428, 128, 146
3088, 256, 255
2512, 256, 213
3044, 256, 244
7072, 512, 485
1024, 128, 108
7408, 512, 514
3144, 256, 261
6464, 512, 441
2712, 256, 217
3420, 256, 278
1976, 128, 187
1360, 128, 139
7152, 512, 488
6220, 512, 416
2740, 256, 216
3044, 256, 251
12116, 1024, 718
2824, 256, 232
3088, 256, 250
7196, 512, 499
2836, 256, 231
1272, 128, 130
3856, 256, 313
3188, 256, 265
1344, 128, 138
6468, 512, 447
3220, 256, 258
2408, 256, 206
4588, 512, 303
3112, 256, 258
3200, 256, 269
4636, 512, 320
10448, 1024, 608
2160, 256, 176
5408, 512, 378
2496, 256, 215
3472, 256, 278
6336, 512, 420
1316, 128, 135
2036, 256, 171
12276, 1024, 740
1092, 128, 116
2484, 256, 214
5152, 512, 348
6324, 512, 426
6416, 512, 440
7024, 512, 473
6968, 512, 481
6068, 512, 401
5352, 512, 384
3016, 256, 247
5604, 512, 390
3152, 256, 259
2788, 256, 230
6720, 512, 456
5572, 512, 397
5288, 512, 359
2476, 256, 201
11548, 1024, 679
12176, 1024, 725
3012, 256, 249
3468, 256, 291
5376, 512, 372
5348, 512, 371
5112, 512, 351
344, 32, 61
5412, 512, 376
7392, 512, 514
5488, 512, 384
3032, 256, 255
5348, 512, 368
1976, 256, 162
5692, 512, 402
5512, 512, 379
3208, 256, 269
1072, 128, 117
3496, 256, 293
7024, 512, 477
5504, 512, 385
3032, 256, 248
2228, 256, 184
2656, 256, 225
6216, 512, 425
2436, 256, 206
6420, 512, 438
2796, 256, 229
5272, 512, 364
7232, 512, 502
6876, 512, 468
6812, 512, 457
3012, 256, 243
6136, 512, 408
1628, 128, 164
7156, 512, 494
996, 64, 118
7044, 512, 489
5348, 512, 367
5296, 512, 363
4800, 512, 334
3220, 256, 263
2296, 256, 194
12180, 1024, 726
6368, 512, 433
436, 32, 74
10716, 1024, 628
6988, 512, 481
540, 64, 75
1412, 128, 149
2796, 256, 228
2328, 256, 197
3028, 256, 247
3132, 256, 256
6204, 512, 415
5424, 512, 376
2116, 256, 179
2628, 256, 222
3120, 256, 257
3876, 256, 299
5464, 512, 382
1292, 128, 130
3196, 256, 266
5440, 512, 381
2320, 256, 195
6156, 512, 416
4664, 512, 321
2300, 256, 190
12172, 1024, 723
5436, 512, 380
2048, 256, 171
2360, 256, 200
3020, 256, 247
1288, 128, 129
3328, 256, 284
6992, 512, 476
5748, 512, 408
5472, 512, 383
6344, 512, 427
2472, 256, 211
6336, 512, 429
4904, 512, 339
3452, 256, 288
3232, 256, 271
2384, 256, 205
3444, 256, 272
1292, 128, 130
5128, 512, 342
2228, 256, 186
6572, 512, 456
3204, 256, 270
3064, 256, 251
712, 64, 96
2756, 256, 223
2416, 256, 204
5068, 512, 342
3096, 256, 254
5372, 512, 365
868, 64, 105
4252, 512, 278
5260, 512, 360
2472, 256, 201
5496, 512, 380
2096, 256, 178
7176, 512, 486
3304, 256, 273
3252, 256, 265
736, 64, 88
7084, 512, 477
2560, 256, 217
3504, 256, 296
468, 64, 68
3332, 256, 284
3060, 256, 249
5468, 512, 382
2828, 256, 230
4416, 512, 297
10728, 1024, 646
3464, 256, 289
6580, 512, 446
3172, 256, 268
2996, 256, 241
5080, 512, 350
3528, 256, 291
8156, 512, 546
5612, 512, 390
9900, 1024, 563
11076, 1024, 654
7284, 512, 508
1096, 128, 117
1292, 128, 131
6600, 512, 453
3524, 256, 282
3232, 256, 262
3544, 256, 285
2956, 256, 240
2864, 256, 234
11876, 1024, 694
296, 32, 54
2296, 256, 193
4384, 512, 299
7080, 512, 490
1044, 128, 114
1428, 128, 147
3208, 256, 268
7124, 512, 493
5824, 512, 407
5664, 512, 396
6224, 512, 421
2452, 256, 205
4272, 512, 283
5316, 512, 364
5752, 512, 413
2296, 256, 192
12436, 1024, 749
1428, 128, 146
2996, 256, 251
7004, 512, 474
2452, 256, 209
3400, 256, 280
2848, 256, 232
7244, 512, 506
3224, 256, 273
3216, 256, 261
2728, 256, 237
2584, 256, 225
2632, 256, 223
692, 64, 91
3076, 256, 252
2860, 256, 233
3060, 256, 250
5144, 512, 355
3280, 256, 269
6724, 512, 467
4992, 512, 345
868, 64, 104
1404, 128, 147
2880, 256, 237
3128, 256, 255
5468, 512, 376
6472, 512, 440
352, 32, 63
5220, 512, 355
3148, 256, 260
7328, 512, 490
10404, 1024, 610
5480, 512, 376
1012, 128, 108
5596, 512, 391
3004, 256, 241
6116, 512, 411
2944, 256, 238
6748, 512, 469
6128, 512, 410
6348, 512, 421
6900, 512, 462
2460, 256, 208
2944, 256, 242
5752, 512, 417
792, 64, 101
11860, 1024, 700
7048, 512, 484
2396, 256, 208
2136, 128, 199
7256, 512, 503
6388, 512, 430
6648, 512, 448
4472, 512, 304
10916, 1024, 644
2352, 256, 198
3036, 256, 246
6908, 512, 476
3260, 256, 268
2664, 256, 230
8116, 512, 545
7088, 512, 488
5464, 512, 381
5532, 512, 397
3056, 256, 249
5188, 512, 362
5804, 512, 410
6864, 512, 464
4228, 512, 274
5408, 512, 377
12060, 1024, 707
10072, 1024, 576
3964, 256, 327
1612, 128, 161
3156, 256, 263
3232, 256, 273
7160, 512, 498
2996, 256, 244
2260, 256, 184
2388, 256, 205
3184, 256, 264
1588, 128, 155
6828, 512, 466
4596, 512, 314
3220, 256, 268
3176, 256, 263
6784, 512, 460
5252, 512, 354
6244, 512, 418
3136, 256, 257
2016, 128, 185
4956, 512, 351
11772, 1024, 684
2232, 256, 184
2996, 256, 240
1560, 128, 156
7148, 512, 492
11192, 1024, 641
4632, 512, 317
4272, 512, 283
2488, 256, 215
3172, 256, 266
7320, 512, 502
4636, 512, 312
1484, 128, 146
5624, 512, 380
5284, 512, 362
3144, 256, 258
7116, 512, 486
7168, 512, 496
7144, 512, 489
11496, 1024, 678
1424, 128, 149
12284, 1024, 733
3304, 256, 278
11552, 1024, 688
3192, 256, 266
7064, 512, 478
3488, 256, 274
5632, 512, 386
3160, 256, 263
3000, 256, 245
3112, 256, 257
3172, 256, 265
2628, 256, 232
4760, 512, 333
908, 128, 98
3072, 256, 250
3012, 256, 240
7072, 512, 484
3224, 256, 260
6400, 512, 433
6972, 512, 485
6248, 512, 415
6544, 512, 452
4624, 512, 321
6716, 512, 446
4976, 512, 337
2756, 256, 218
7280, 512, 501
3188, 256, 260
3132, 256, 257
6192, 512, 440
5492, 512, 388
5488, 512, 387
5504, 512, 386
2836, 256, 233
2792, 256, 221
7120, 512, 486
7236, 512, 501
752, 64, 95
2456, 256, 205
6752, 512, 450
1128, 128, 121
3112, 256, 259
7380, 512, 508
6352, 512, 429
1360, 128, 136
6992, 512, 469
2556, 256, 210
6916, 512, 477
6612, 512, 453
5016, 512, 340
2064, 256, 174
3076, 256, 251
5072, 512, 353
1660, 128, 165
5332, 512, 367
4564, 512, 307
7160, 512, 494
3116, 256, 256
632, 64, 87
3388, 256, 283
5344, 512, 372
3236, 256, 273
7004, 512, 471
5436, 512, 379
6080, 512, 409
2932, 256, 232
5664, 512, 399
6400, 512, 440
3468, 256, 277
7340, 512, 499
3512, 256, 298
3088, 256, 252
6196, 512, 411
1472, 128, 153
3484, 256, 291
5928, 512, 412
2840, 256, 234
3124, 256, 254
3144, 256, 259
5392, 512, 380
1484, 128, 155
6720, 512, 457
3012, 256, 250
2056, 256, 173
7212, 512, 502
3164, 256, 260
6448, 512, 441
4688, 512, 321
11324, 1024, 653
3036, 256, 245
2324, 256, 195
3312, 256, 275
7376, 512, 512
1268, 128, 127
6488, 512, 444
5428, 512, 382
5076, 512, 346
2512, 256, 210
7360, 512, 506
3220, 256, 273
2012, 256, 167
7120, 512, 496
2884, 256, 239
12536, 1024, 761
2744, 256, 220
3072, 256, 248
1384, 128, 146
3284, 256, 263
5924, 512, 414
3132, 256, 263
4712, 512, 322
3368, 256, 279
660, 64, 88
10292, 1024, 598
10656, 1024, 623
3032, 256, 250
5280, 512, 364
6848, 512, 461
5348, 512, 370
3304, 256, 271
6012, 512, 413
3408, 256, 284
4440, 512, 296
6476, 512, 433
1424, 128, 145
3488, 256, 290
4524, 512, 314
2048, 256, 173
2232, 256, 188
8312, 512, 519
1316, 128, 134
7392, 512, 511
308, 32, 56
5932, 512, 389
7124, 512, 491
1200, 128, 126
4604, 512, 317
3116, 256, 258
6936, 512, 474
3060, 256, 252
2420, 256, 203
6320, 512, 418
6616, 512, 451
5152, 512, 354
6816, 512, 465
5420, 512, 380
2664, 256, 227
3208, 256, 257
5308, 512, 374
2280, 256, 187
716, 64, 91
3360, 256, 277
4652, 512, 324
3496, 256, 283
5328, 512, 368
9664, 1024, 548
3116, 256, 259
7096, 512, 487
1472, 128, 152
1536, 128, 157
1492, 128, 147
1020, 128, 110
1328, 128, 138
5384, 512, 366
6272, 512, 418
896, 128, 95
3224, 256, 270
1660, 128, 154
6352, 512, 426
4872, 512, 337
3304, 256, 277
7092, 512, 484
6928, 512, 466
3120, 256, 254
3816, 256, 292
4628, 512, 313
6780, 512, 452
5016, 512, 333
880, 64, 106
7476, 512, 524
2100, 256, 176
4212, 512, 273
2340, 256, 199
3108, 256, 255
4908, 512, 340
1368, 128, 137
6288, 512, 421
3360, 256, 280
1352, 128, 141
1396, 128, 143
6636, 512, 455
7148, 512, 490
2452, 256, 210
7112, 512, 489
2120, 128, 195
2604, 256, 220
3796, 256, 283
1192, 128, 121
2960, 256, 238
2692, 256, 216
5972, 512, 399
912, 64, 109
7068, 512, 484
2816, 256, 232
3212, 256, 267
2272, 256, 191
5284, 512, 358
6448, 512, 440
2380, 256, 204
1208, 128, 135
6764, 512, 456
3596, 256, 282
2380, 256, 198
6896, 512, 487
4748, 512, 321
4756, 512, 332
7040, 512, 480
1616, 128, 165
7144, 512, 490
6576, 512, 431
1352, 128, 142
2948, 256, 241
1468, 128, 156
5424, 512, 383
6416, 512, 434
4476, 512, 304
6276, 512, 425
2924, 256, 244
12204, 1024, 728
3088, 256, 257
7184, 512, 495
6368, 512, 436
6916, 512, 467
3824, 256, 312
2236, 256, 182
2272, 256, 187
6468, 512, 444
2280, 256, 190
2296, 256, 189
760, 64, 103
6056, 512, 404
10728, 1024, 628
2136, 256, 184
2884, 256, 239
3232, 256, 272
7076, 512, 485
3288, 256, 268
6024, 512, 400
5312, 512, 366
1456, 128, 152
3052, 256, 250
5344, 512, 369
5980, 512, 385
4156, 512, 271
2836, 256, 228
3176, 256, 263
2496, 256, 217
1284, 128, 127
6232, 512, 423
7084, 512, 488
4708, 512, 329
1580, 128, 164
3180, 256, 260
3016, 256, 244
6688, 512, 439
1068, 128, 110
7220, 512, 494
2896, 256, 236
4596, 512, 314
5220, 512, 358
7156, 512, 493
3580, 256, 295
3020, 256, 245
6188, 512, 409
10456, 1024, 612
6256, 512, 413
7088, 512, 478
6636, 512, 460
3080, 256, 254
3332, 256, 274
7300, 512, 498
3184, 256, 264
12148, 1024, 728
5588, 512, 391
5392, 512, 374
6880, 512, 483
7320, 512, 504
7652, 512, 523
6768, 512, 453
5296, 512, 366
6528, 512, 450
3280, 256, 271
3316, 256, 270
4696, 512, 325
3456, 256, 285
7108, 512, 481
5344, 512, 366
1312, 128, 133
3176, 256, 262
3176, 256, 262
11896, 1024, 702
5432, 512, 386
2800, 256, 244
6580, 512, 455
2784, 256, 224
13336, 1024, 751
6344, 512, 449
2120, 256, 179
4732, 512, 318
688, 64, 96
7336, 512, 502
1376, 128, 142
3184, 256, 265
2816, 256, 230
5128, 512, 352
1416, 128, 143
3008, 256, 252
6720, 512, 446
2460, 256, 208
1812, 128, 175
6816, 512, 478
5256, 512, 361
2012, 256, 167
7172, 512, 492
2340, 256, 194
4744, 512, 323
3092, 256, 258
1768, 128, 183
3080, 256, 251
696, 64, 92
10244, 1024, 591
6756, 512, 454
3104, 256, 257
2288, 256, 186
3116, 256, 257
1744, 128, 175
3220, 256, 264
6552, 512, 450
6796, 512, 459
228, 32, 46
6740, 512, 451
1232, 128, 129
6920, 512, 477
5448, 512, 378
7132, 512, 494
3328, 256, 273
2672, 256, 219
3144, 256, 260
1268, 128, 128
5320, 512, 368
6500, 512, 448
1264, 128, 127
2488, 256, 214
2376, 256, 197
5360, 512, 371
11360, 1024, 659
5608, 512, 402
6692, 512, 454
1260, 128, 126
2328, 256, 193
2600, 256, 206
776, 64, 96
6252, 512, 424
3272, 256, 265
11204, 1024, 640
3072, 256, 252
10252, 1024, 588
11984, 1024, 730
3640, 256, 294
2344, 256, 199
3512, 256, 298
7468, 512, 515
4960, 512, 345
3752, 256, 281
7164, 512, 492
6128, 512, 410
3016, 256, 250
7204, 512, 494
3408, 256, 270
4712, 512, 327
2760, 256, 223
3096, 256, 253
2948, 256, 243
3848, 256, 314
584, 64, 81
3360, 256, 277
5132, 512, 347
7100, 512, 488
6028, 512, 400
3368, 256, 268
6760, 512, 455
1112, 128, 119
6432, 512, 433
3056, 256, 249
1360, 128, 141
2612, 256, 219
5064, 512, 342
2784, 256, 225
6572, 512, 444
5464, 512, 383
4652, 512, 323
332, 32, 61
4288, 512, 282
6364, 512, 433
2980, 256, 253
6912, 512, 471
6972, 512, 471
5144, 512, 346
3020, 256, 251
5320, 512, 372
7148, 512, 488
1416, 128, 144
5376, 512, 376
3096, 256, 259
6292, 512, 429
5460, 512, 381
4640, 512, 314
3476, 256, 293
4556, 512, 309
7644, 512, 529
7264, 512, 503
3168, 256, 265
7132, 512, 488
6644, 512, 460
3392, 256, 280
7076, 512, 487
6456, 512, 442
5884, 512, 382
5436, 512, 379
6892, 512, 472
5996, 512, 397
3000, 256, 248
1284, 128, 138
2216, 256, 188
6940, 512, 472
3104, 256, 257
7108, 512, 490
2764, 256, 225
10256, 1024, 599
2840, 256, 229
2768, 256, 225
5572, 512, 389
3236, 256, 266
5436, 512, 379
4880, 512, 337
708, 64, 93
1648, 128, 162
3168, 256, 261
9724, 1024, 556
3196, 256, 262
3072, 256, 253
1040, 128, 114
1748, 128, 177
2504, 256, 212
7244, 512, 491
7224, 512, 502
6388, 512, 434
6624, 512, 453
6392, 512, 434
7384, 512, 510
3052, 256, 250
808, 64, 103
5844, 512, 395
7340, 512, 503
3344, 256, 276
5412, 512, 379
5136, 512, 352
7044, 512, 483
5624, 512, 396
3080, 256, 255
11444, 1024, 664
7084, 512, 487
3100, 256, 255
6660, 512, 456
3200, 256, 268
7088, 512, 483
10664, 1024, 622
6400, 512, 433
4536, 512, 304
600, 64, 82
2352, 256, 201
2880, 256, 233
2812, 256, 229
11032, 1024, 631
6840, 512, 470
3748, 256, 299
840, 64, 110
3200, 256, 267
3460, 256, 281
2444, 256, 208
3788, 256, 310
6888, 512, 471
5324, 512, 368
3396, 256, 283
3144, 256, 259
2352, 256, 197
1696, 128, 172
2808, 256, 231
2472, 256, 203
7256, 512, 500
3380, 256, 277
7116, 512, 483
7120, 512, 492
5472, 512, 384
5592, 512, 401
6696, 512, 459
3144, 256, 261
4992, 512, 335
3008, 256, 253
3064, 256, 251
7136, 512, 489
7464, 512, 517
600, 64, 80
4736, 512, 329
7064, 512, 483
3396, 256, 272
5488, 512, 382
5764, 512, 394
5144, 512, 355
2728, 256, 235
5824, 512, 409
6344, 512, 430
5736, 512, 387
3184, 256, 270
1464, 128, 155
7296, 512, 508
2964, 256, 238
4236, 512, 279
2832, 256, 231
580, 64, 80
5332, 512, 369
2672, 256, 217
6020, 512, 399
6396, 512, 434
4464, 512, 301
3140, 256, 258
2348, 256, 197
2896, 256, 240
3148, 256, 263
3140, 256, 258
3356, 256, 276
2216, 256, 184
7292, 512, 503
6552, 512, 443
1368, 128, 143
5972, 512, 388
1112, 128, 123
5472, 512, 384
4120, 256, 314
3212, 256, 267
3328, 256, 283
7304, 512, 513
7008, 512, 469
4836, 512, 331
1040, 128, 110
600, 64, 80
3164, 256, 264
2304, 256, 200
3772, 256, 303
1384, 128, 140
5428, 512, 383
5280, 512, 361
1756, 128, 161
1536, 128, 161
1364, 128, 142
3224, 256, 261
6240, 512, 417
5944, 512, 391
6992, 512, 473
3064, 256, 250
6344, 512, 428
6844, 512, 466
3128, 256, 263
2800, 256, 229
4736, 512, 323
6260, 512, 413
1308, 128, 134
6544, 512, 448
5280, 512, 367
1800, 128, 186
10320, 1024, 597
7188, 512, 497
7368, 512, 509
2544, 256, 218
11044, 1024, 631
5016, 512, 351
7044, 512, 478
2072, 256, 170
6892, 512, 462
5128, 512, 348
1188, 128, 130
2552, 256, 219
5380, 512, 370
14044, 1024, 799
4452, 512, 292
1016, 128, 109
7484, 512, 522
6544, 512, 441
5400, 512, 376
6372, 512, 422
3456, 256, 281
7452, 512, 501
6780, 512, 474
5544, 512, 393
2748, 256, 221
7016, 512, 471
3208, 256, 266
6796, 512, 464
5896, 512, 381
2720, 256, 233
936, 128, 99
5424, 512, 376
3008, 256, 247
5136, 512, 353
4660, 512, 326
3372, 256, 279
1156, 128, 127
7124, 512, 492
3076, 256, 254
2652, 256, 227
5240, 512, 364
3332, 256, 283
3516, 256, 285
10460, 1024, 612
4304, 512, 286
1744, 128, 177
2128, 256, 177
5892, 512, 383
5484, 512, 386
5776, 512, 402
1020, 128, 110
11444, 1024, 673
2388, 256, 205
2880, 256, 237
7168, 512, 491
2308, 256, 192
2956, 256, 244
2744, 256, 224
2912, 256, 244
6408, 512, 431
3064, 256, 248
6944, 512, 462
3364, 256, 278
9628, 1024, 548
1132, 128, 122
6364, 512, 435
3108, 256, 254
6056, 512, 404
6396, 512, 432
3492, 256, 292
3112, 256, 258
10468, 1024, 621
5744, 512, 407
5432, 512, 380
4568, 512, 309
3164, 256, 263
1276, 128, 133
5244, 512, 360
7476, 512, 510
2680, 256, 217
6448, 512, 436
2840, 256, 235
2780, 256, 228
12232, 1024, 723
3420, 256, 290
5364, 512, 371
5300, 512, 369
3360, 256, 278
5124, 512, 350
5464, 512, 382
3204, 256, 269
2872, 256, 235
5360, 512, 373
6856, 512, 463
7336, 512, 507
3040, 256, 246
5692, 512, 395
1328, 128, 138
6976, 512, 478
920, 64, 112
7092, 512, 480
5404, 512, 382
6588, 512, 431
3436, 256, 283
1264, 128, 133
5252, 512, 356
4692, 512, 323
6492, 512, 447
428, 64, 61
5364, 512, 369
10696, 1024, 626
764, 64, 98
3176, 256, 266
2548, 256, 218
656, 64, 90
7168, 512, 496
4980, 512, 346
3500, 256, 285
2780, 256, 225
1996, 256, 163
6640, 512, 456
3048, 256, 247
6352, 512, 430
2648, 256, 222
2616, 256, 229
2848, 256, 233
5416, 512, 376
2596, 256, 218
1308, 128, 137
5440, 512, 376
6624, 512, 449
2164, 256, 176
1368, 128, 141
5228, 512, 354
5152, 512, 346
4656, 512, 321
3308, 256, 269
7072, 512, 480
10212, 1024, 583
1348, 128, 139
2220, 256, 186
15400, 1024, 895
7048, 512, 478
7116, 512, 483
7424, 512, 502
7264, 512, 510
3256, 256, 267
2996, 256, 246
1060, 128, 115
2060, 128, 197
4756, 512, 337
6340, 512, 429
10384, 1024, 606
2828, 256, 243
2084, 256, 168
4592, 512, 314
7188, 512, 496
12264, 1024, 737
3004, 256, 252
3452, 256, 279
6792, 512, 473
3004, 256, 241
4352, 512, 285
5796, 512, 411
6328, 512, 428
3012, 256, 253
5692, 512, 395
3196, 256, 267
3324, 256, 269
5204, 512, 354
6984, 512, 482
5344, 512, 374
6764, 512, 456
5740, 512, 408
5140, 512, 354
4748, 512, 332
2324, 256, 195
3588, 256, 260
6416, 512, 434
1604, 128, 159
2400, 256, 206
1180, 128, 128
5272, 512, 367
2968, 256, 243
6860, 512, 467
10120, 1024, 580
2032, 256, 165
5780, 512, 416
3624, 256, 294
12204, 1024, 731
11616, 1024, 692
6584, 512, 457
7272, 512, 491
6716, 512, 448
3160, 256, 262
3216, 256, 272
3648, 256, 265
6716, 512, 449
2876, 256, 237
2264, 256, 186
1128, 128, 120
2228, 256, 186
1064, 128, 115
1172, 128, 121
1512, 128, 158
5280, 512, 358
6856, 512, 467
6828, 512, 460
3140, 256, 258
1532, 128, 156
6596, 512, 450
6304, 512, 426
7112, 512, 490
1020, 128, 109
10088, 1024, 587
3032, 256, 251
6680, 512, 463
4728, 512, 331
5016, 512, 341
2408, 256, 204
6384, 512, 432
3164, 256, 260
7012, 512, 481
2920, 256, 237
4968, 512, 332
3596, 256, 282
1444, 128, 150
2828, 256, 230
2944, 256, 237
6684, 512, 467
1088, 128, 115
5248, 512, 361
2364, 256, 199
5420, 512, 375
5716, 512, 406
3008, 256, 252
2088, 256, 172
3016, 256, 245
4616, 512, 314
6856, 512, 452
1040, 128, 107
15408, 1024, 899
12200, 1024, 729
14092, 1024, 808
3068, 256, 251
6972, 512, 475
3376, 256, 279
2072, 256, 176
5500, 512, 390
3212, 256, 272
2828, 256, 232
3092, 256, 248
6904, 512, 474
13304, 1024, 748
2304, 256, 190
4200, 512, 276
2536, 256, 208
2680, 256, 216
5372, 512, 376
2248, 256, 184
544, 64, 74
5928, 512, 384
3032, 256, 245
1428, 128, 146
3340, 256, 277
1456, 128, 151
6816, 512, 456
3272, 256, 274
1896, 256, 153
6332, 512, 428
8244, 512, 512
1420, 128, 148
6348, 512, 433
2556, 256, 216
2592, 256, 224
5428, 512, 374
5472, 512, 383
2768, 256, 237
5184, 512, 361
7120, 512, 488
11756, 1024, 685
4752, 512, 323
1364, 128, 135
7816, 512, 545
5044, 512, 361
3316, 256, 274
5316, 512, 366
2604, 256, 207
7116, 512, 495
3536, 256, 289
6884, 512, 470
6288, 512, 414
5356, 512, 372
7176, 512, 493
2984, 256, 236
3148, 256, 263
5304, 512, 364
6244, 512, 440
3752, 256, 277
1464, 128, 151
1124, 128, 120
1516, 128, 156
2824, 256, 229
2952, 256, 239
13592, 1024, 775
3052, 256, 248
1404, 128, 145
7112, 512, 482
6004, 512, 400
2852, 256, 224
14652, 1024, 869
7460, 512, 516
5424, 512, 377
3108, 256, 257
3100, 256, 256
3168, 256, 265
4100, 256, 318
2624, 256, 207
1280, 128, 130
3516, 256, 288
6368, 512, 429
5344, 512, 370
3248, 256, 270
1536, 128, 154
4876, 512, 332
11820, 1024, 710
6188, 512, 413
1580, 128, 158
4616, 512, 319
6856, 512, 466
1428, 128, 151
6316, 512, 425
5092, 512, 351
3088, 256, 253
3024, 256, 245
11004, 1024, 622
3028, 256, 247
2444, 256, 207
3048, 256, 249
7852, 512, 549
5300, 512, 362
1392, 128, 142
4924, 512, 330
2184, 256, 176
6336, 512, 425
4088, 256, 315
664, 64, 88
2352, 256, 198
4752, 512, 332
972, 128, 104
7060, 512, 480
3140, 256, 257
1680, 128, 158
6256, 512, 423
3220, 256, 269
3652, 256, 296
5492, 512, 388
3228, 256, 263
2332, 256, 190
2952, 256, 233
2264, 256, 184
7192, 512, 493
5784, 512, 416
3188, 256, 256
3308, 256, 277
5540, 512, 389
7404, 512, 514
5164, 512, 361
5512, 512, 384
2896, 256, 231
5452, 512, 379
6504, 512, 452
1832, 128, 172
7060, 512, 481
2020, 256, 168
1720, 128, 170
6656, 512, 456
7260, 512, 503
9772, 1024, 558
9612, 1024, 547
6784, 512, 461
6508, 512, 441
5328, 512, 368
1040, 128, 109
3068, 256, 252
6216, 512, 412
3684, 256, 288
4220, 256, 326
2736, 256, 217
6940, 512, 465
5324, 512, 368
3468, 256, 291
4208, 256, 348
6392, 512, 427
1056, 128, 114
5512, 512, 388
2516, 256, 211
6640, 512, 450
6176, 512, 406
7124, 512, 493
2948, 256, 239
2124, 256, 181
11556, 1024, 687
6964, 512, 476
2120, 256, 176
5692, 512, 406
5392, 512, 375
5664, 512, 385
6944, 512, 463
2248, 256, 190
2876, 256, 236
3044, 256, 247
4328, 512, 293
3212, 256, 267
7060, 512, 474
1724, 128, 176
7004, 512, 476
5792, 512, 399
6432, 512, 439
5920, 512, 406
2324, 256, 195
3248, 256, 265
3044, 256, 247
7172, 512, 504
4076, 256, 331
6764, 512, 456
5040, 512, 342
1148, 128, 124
616, 64, 84
3280, 256, 272
6348, 512, 420
10596, 1024, 629
1868, 128, 191
640, 64, 87
548, 64, 76
7092, 512, 488
680, 64, 88
1456, 128, 153
6464, 512, 444
6844, 512, 456
5564, 512, 396
4280, 512, 285
5616, 512, 393
14392, 1024, 838
1248, 128, 127
3600, 256, 289
3980, 256, 324
6452, 512, 442
2168, 256, 183
5036, 512, 341
7152, 512, 499
3244, 256, 273
2168, 256, 180
10380, 1024, 603
14368, 1024, 840
5036, 512, 344
6504, 512, 440
2604, 256, 216
6440, 512, 437
7068, 512, 484
7448, 512, 518
2044, 256, 165
6728, 512, 465
2900, 256, 232
5684, 512, 397
3208, 256, 270
3036, 256, 249
7604, 512, 528
6960, 512, 473
5332, 512, 374
7292, 512, 500
2816, 256, 230
5372, 512, 368
2780, 256, 228
2888, 256, 239
5604, 512, 390
4572, 512, 310
7064, 512, 482
7120, 512, 491
3412, 256, 282
2984, 256, 244
4552, 512, 307
7240, 512, 496
2384, 256, 198
6980, 512, 477
12280, 1024, 729
5320, 512, 366
2568, 256, 219
6044, 512, 400
6336, 512, 429
7232, 512, 506
3424, 256, 279
3124, 256, 258
2240, 256, 180
668, 64, 85
12236, 1024, 734
6528, 512, 444
5464, 512, 382
2324, 256, 196
3332, 256, 270
2824, 256, 227
6696, 512, 443
6356, 512, 423
3076, 256, 254
2676, 256, 217
14436, 1024, 842
3176, 256, 263
3072, 256, 252
2384, 256, 198
6612, 512, 460
460, 32, 73
6700, 512, 445
6768, 512, 456
7240, 512, 505
5320, 512, 367
5476, 512, 372
5356, 512, 376
3132, 256, 259
3588, 256, 301
920, 64, 115
3676, 256, 273
2992, 256, 246
996, 128, 104
1756, 128, 169
3444, 256, 286
3352, 256, 284
2772, 256, 227
6740, 512, 451
2948, 256, 242
1024, 64, 124
6324, 512, 427
3968, 256, 327
6100, 512, 409
3180, 256, 265
5380, 512, 378
3276, 256, 269
2060, 256, 177
6036, 512, 421
1372, 128, 144
2604, 256, 216
7188, 512, 496
6756, 512, 456
3288, 256, 268
11756, 1024, 675
7036, 512, 475
1428, 128, 146
3528, 256, 301
1164, 128, 119
6176, 512, 417
7232, 512, 507
3216, 256, 271
6328, 512, 426
5332, 512, 366
1432, 128, 144
5096, 512, 351
3512, 256, 296
6616, 512, 440
1604, 128, 168
2984, 256, 250
3384, 256, 282
1072, 128, 118
6908, 512, 474
10616, 1024, 635
2512, 256, 210
6748, 512, 466
5280, 512, 358
7316, 512, 504
11104, 1024, 661
2748, 256, 239
5400, 512, 375
4672, 512, 326
3052, 256, 259
3144, 256, 256
1740, 128, 177
2876, 256, 235
6704, 512, 456
8660, 512, 549
2732, 256, 222
3400, 256, 279
3776, 256, 301
3176, 256, 266
3052, 256, 249
2544, 256, 214
7104, 512, 492
2344, 256, 195
1320, 128, 136
2068, 256, 175
3552, 256, 289
2836, 256, 231
5328, 512, 370
6364, 512, 431
12100, 1024, 706
3284, 256, 254
2952, 256, 237
3068, 256, 253
6316, 512, 420
6948, 512, 465
6940, 512, 468
2952, 256, 246
5464, 512, 384
7204, 512, 500
576, 64, 78
3120, 256, 253
14472, 1024, 847
3332, 256, 275
6184, 512, 410
2180, 256, 186
7080, 512, 485
5448, 512, 372
4748, 512, 330
5876, 512, 420
3204, 256, 261
5164, 512, 347
3248, 256, 268
6164, 512, 413
1436, 128, 148
572, 64, 78
1056, 128, 115
1408, 128, 149
5332, 512, 369
5420, 512, 376
7228, 512, 506
10324, 1024, 591
6800, 512, 453
2764, 256, 225
3104, 256, 257
4704, 512, 325
2620, 256, 221
5484, 512, 383
3056, 256, 249
3260, 256, 271
3132, 256, 260
1376, 128, 139
6764, 512, 456
3348, 256, 278
5552, 512, 396
2384, 256, 203
2472, 256, 213
4536, 512, 304
3360, 256, 281
1464, 128, 151
11424, 1024, 665
4804, 512, 330
3444, 256, 285
7188, 512, 496
872, 64, 105
1004, 128, 106
5600, 512, 394
3312, 256, 270
7184, 512, 497
928, 64, 113
3276, 256, 275
3060, 256, 247
6280, 512, 420
6424, 512, 445
3192, 256, 262
3216, 256, 266
7304, 512, 510
564, 64, 76
7168, 512, 496
1112, 128, 108
5372, 512, 369
11356, 1024, 659
6116, 512, 424
6028, 512, 396
5500, 512, 393
3076, 256, 258
1364, 128, 143
7136, 512, 489
7160, 512, 493
2328, 256, 193
3080, 256, 255
3468, 256, 287
4964, 512, 330
7032, 512, 476
2408, 256, 206
2916, 256, 236
7380, 512, 512
3332, 256, 270
4984, 512, 336
7064, 512, 482
5684, 512, 395
2336, 256, 196
10508, 1024, 619
5284, 512, 359
5256, 512, 362
11416, 1024, 663
1056, 128, 113
7160, 512, 494
6848, 512, 465
6732, 512, 452
12200, 1024, 720
3316, 256, 271
6908, 512, 460
7412, 512, 513
7132, 512, 492
4256, 512, 278
600, 64, 84
6284, 512, 421
5408, 512, 377
3096, 256, 255
5200, 512, 354
5672, 512, 405
5624, 512, 399
12032, 1024, 705
5628, 512, 377
3280, 256, 260
12272, 1024, 742
6776, 512, 459
3848, 256, 314
2760, 256, 225
3144, 256, 258
4616, 512, 314
5400, 512, 373
5552, 512, 392
3152, 256, 263
1068, 128, 111
7524, 512, 513
5788, 512, 408
3388, 256, 281
7248, 512, 507
1368, 128, 137
2820, 256, 232
4508, 512, 305
768, 64, 100
6172, 512, 416
7188, 512, 497
6916, 512, 476
7144, 512, 489
1588, 128, 158
4944, 512, 347
2448, 256, 209
6832, 512, 468
1456, 128, 149
10376, 1024, 603
2952, 256, 240
3168, 256, 262
6308, 512, 430
4468, 256, 334
5432, 512, 384
6336, 512, 430
3064, 256, 259
2560, 256, 219
6380, 512, 425
3044, 256, 246
3476, 256, 290
680, 64, 92
5088, 512, 346
5328, 512, 365
4612, 512, 315
3132, 256, 259
3020, 256, 251
6268, 512, 413
2356, 256, 197
3248, 256, 266
1476, 128, 153
6688, 512, 453
6808, 512, 467
3376, 256, 279
5140, 512, 353
5348, 512, 370
5128, 512, 361
1796, 128, 176
5424, 512, 381
7096, 512, 486
7196, 512, 494
6336, 512, 424
6952, 512, 474
7144, 512, 486
5220, 512, 353
5032, 512, 338
3468, 256, 287
2424, 256, 204
7088, 512, 481
2932, 256, 246
5028, 512, 342
2768, 256, 225
3316, 256, 277
3032, 256, 243
3180, 256, 264
3264, 256, 269
5432, 512, 379
6840, 512, 463
3056, 256, 250
7824, 512, 543
15688, 1024, 907
6096, 512, 432
1956, 128, 181
6788, 512, 466
664, 64, 89
5476, 512, 377
6612, 512, 453
1140, 128, 123
7460, 512, 516
2904, 256, 232
6892, 512, 471
1472, 128, 149
6868, 512, 471
2956, 256, 236
5184, 512, 360
5484, 512, 390
10392, 1024, 600
2852, 256, 234
6068, 512, 407
1272, 128, 128
7148, 512, 496
5320, 512, 367
10764, 1024, 639
5440, 512, 384
3020, 256, 255
2992, 256, 246
6400, 512, 433
7128, 512, 492
3092, 256, 254
3396, 256, 275
3160, 256, 263
2492, 256, 207
5328, 512, 369
2328, 256, 196
5336, 512, 369
6652, 512, 445
2320, 256, 194
1228, 128, 126
11460, 1024, 670
3236, 256, 269
4900, 512, 340
3260, 256, 272
3120, 256, 261
5104, 512, 339
3044, 256, 246
7472, 512, 530
2416, 256, 202
1312, 128, 135
6980, 512, 474
3180, 256, 267
7244, 512, 500
7188, 512, 486
5496, 512, 383
5260, 512, 364
4312, 512, 292
1352, 128, 144
5492, 512, 379
3028, 256, 247
3108, 256, 252
5428, 512, 378
5500, 512, 385
6680, 512, 444
5484, 512, 377
7076, 512, 486
1384, 128, 141
6000, 512, 395
3248, 256, 275
2724, 256, 217
2332, 256, 193
3416, 256, 281
5520, 512, 388
3116, 256, 263
6444, 512, 459
7036, 512, 480
6044, 512, 423
3276, 256, 271
7224, 512, 506
3132, 256, 257
2404, 256, 202
3448, 256, 273
2168, 256, 180
7420, 512, 517
7072, 512, 484
1016, 128, 108
5392, 512, 379
952, 64, 113
3052, 256, 248
3156, 256, 262
2152, 256, 183
6296, 512, 424
5228, 512, 361
3256, 256, 270
4560, 512, 307
3216, 256, 266
4392, 512, 293
4432, 512, 305
3532, 256, 302
1544, 128, 150
2296, 256, 188
5452, 512, 387
2408, 256, 206
1340, 128, 141
11384, 1024, 667
3152, 256, 260
3192, 256, 264
5160, 512, 354
1956, 256, 161
1568, 128, 161
2980, 256, 237
2460, 256, 211
7392, 512, 501
6956, 512, 476
5860, 512, 405
5616, 512, 403
6200, 512, 419
3152, 256, 267
6836, 512, 471
2388, 256, 197
2920, 256, 234
2456, 256, 208
3220, 256, 270
5340, 512, 371
3448, 256, 286
1116, 128, 121
12332, 1024, 731
2440, 256, 206
7188, 512, 491
6448, 512, 437
2720, 256, 218
2984, 256, 244
5272, 512, 361
1592, 128, 157
5144, 512, 348
3440, 256, 281
7028, 512, 485
7832, 512, 546
5152, 512, 357
5428, 512, 366
3484, 256, 290
1256, 128, 136
7204, 512, 490
3448, 256, 289
8596, 512, 542
7628, 512, 527
3180, 256, 263
1652, 128, 169
5696, 512, 401
3072, 256, 249
4764, 512, 318
5440, 512, 380
3512, 256, 293
3168, 256, 261
11456, 1024, 669
3196, 256, 268
6720, 512, 449
3076, 256, 254
5608, 512, 396
2776, 256, 225
5560, 512, 382
2080, 256, 177
6928, 512, 476
3068, 256, 252
2488, 256, 203
6224, 512, 419
3556, 256, 298
11924, 1024, 700
3156, 256, 262
7300, 512, 508
5248, 512, 358
6388, 512, 426
3812, 256, 305
3140, 256, 257
5728, 512, 404
6424, 512, 425
2432, 256, 210
3164, 256, 264
5784, 512, 413
5636, 512, 397
1472, 128, 153
4628, 512, 316
1536, 128, 147
3064, 256, 249
5336, 512, 371
7044, 512, 483
6432, 512, 437
9880, 1024, 564
6104, 512, 405
1480, 128, 154
3068, 256, 253
4824, 512, 334
2876, 256, 236
4588, 512, 312
7048, 512, 477
2240, 256, 183
5336, 512, 367
3764, 256, 282
5172, 512, 347
5000, 512, 337
3240, 256, 267
6720, 512, 464
7064, 512, 476
5396, 512, 374
6428, 512, 436
6416, 512, 432
10072, 1024, 578
6908, 512, 475
4772, 512, 327
6072, 512, 408
6368, 512, 432
12440, 1024, 738
6132, 512, 411
6664, 512, 457
5744, 512, 408
2788, 256, 224
1068, 128, 111
7408, 512, 513
3240, 256, 278
5392, 512, 381
4712, 512, 328
2936, 256, 241
5300, 512, 366
2440, 256, 204
6840, 512, 463
5456, 512, 383
7256, 512, 498
3152, 256, 268
2776, 256, 228
12224, 1024, 730
6672, 512, 442
1872, 256, 151
4564, 512, 307
3236, 256, 266
7108, 512, 481
1536, 128, 148
5680, 512, 396
6808, 512, 455
5416, 512, 371
2972, 256, 245
5944, 512, 388
3196, 256, 260
5856, 512, 406
7008, 512, 480
3336, 256, 276
7080, 512, 486
7204, 512, 490
6252, 512, 442
7564, 512, 530
6696, 512, 461
7136, 512, 475
6920, 512, 474
6800, 512, 461
6764, 512, 457
7376, 512, 511
5108, 512, 346
1444, 128, 150
4888, 512, 343
1584, 128, 154
1612, 128, 161
3496, 256, 293
3048, 256, 247
3328, 256, 269
2512, 256, 215
5296, 512, 366
6532, 512, 452
3276, 256, 275
7808, 512, 522
3144, 256, 255
4768, 512, 330
5404, 512, 375
704, 64, 94
6388, 512, 426
1276, 128, 129
3484, 256, 295
2088, 256, 172
6372, 512, 433
2112, 256, 175
2012, 256, 165
4932, 512, 331
3284, 256, 263
6400, 512, 433
1540, 128, 152
1352, 128, 142
2444, 256, 208
3272, 256, 266
10404, 1024, 610
1372, 128, 140
6436, 512, 442
6808, 512, 456
4520, 512, 301
4520, 512, 301
608, 64, 83
3084, 256, 256
6328, 512, 428
6236, 512, 416
5128, 512, 348
3288, 256, 270
6216, 512, 420
5060, 512, 347
7312, 512, 517
3128, 256, 257
6756, 512, 453
2744, 256, 219
6732, 512, 458
3296, 256, 276
5396, 512, 374
2292, 256, 191
2892, 256, 240
772, 64, 100
3456, 256, 288
5352, 512, 373
1524, 128, 154
1504, 128, 159
6524, 512, 444
6944, 512, 468
2344, 256, 197
3316, 256, 270
7392, 512, 516
5460, 512, 385
5412, 512, 379
6996, 512, 474
3072, 256, 250
4844, 512, 330
2896, 256, 231
6404, 512, 430
3004, 256, 246
5516, 512, 387
3516, 256, 280
2796, 256, 222
2440, 256, 207
3168, 256, 265
5040, 512, 342
2696, 256, 219
2352, 256, 198
3464, 256, 291
3188, 256, 266
1268, 128, 129
10144, 1024, 577
5656, 512, 397
6272, 512, 422
2380, 256, 199
10692, 1024, 618
7464, 512, 507
11332, 1024, 658
6408, 512, 434
6680, 512, 449
7284, 512, 504
6172, 512, 405
5492, 512, 383
3444, 256, 287
3196, 256, 268
5640, 512, 401
6684, 512, 463
3144, 256, 259
5428, 512, 379
3236, 256, 265
3660, 256, 307
6484, 512, 438
2468, 256, 204
5052, 512, 345
6352, 512, 434
5364, 512, 374
2360, 256, 192
6820, 512, 465
5276, 512, 361
3248, 256, 262
1432, 128, 149
4808, 512, 311
7196, 512, 500
3080, 256, 251
5356, 512, 372
3180, 256, 267
2540, 256, 223
7384, 512, 514
3384, 256, 285
3256, 256, 267
3352, 256, 274
5412, 512, 377
1232, 128, 130
4560, 512, 311
2816, 256, 232
3256, 256, 269
5172, 512, 359
7076, 512, 486
1408, 128, 142
4644, 512, 316
1260, 128, 126
5020, 512, 340
6156, 512, 416
6584, 512, 461
4944, 512, 348
2380, 256, 205
9456, 1024, 531
5256, 512, 367
6956, 512, 471
7144, 512, 486
5040, 512, 341
2728, 256, 223
10836, 1024, 641
2928, 256, 240
5436, 512, 380
5104, 512, 346
3220, 256, 269
3924, 256, 324
7056, 512, 487
2456, 256, 210
6012, 512, 397
6360, 512, 434
3060, 256, 250
5452, 512, 383
5184, 512, 360
1320, 128, 136
5892, 512, 388
2656, 256, 225
2400, 256, 201
7380, 512, 516
572, 64, 79
7244, 512, 503
4440, 512, 296
5336, 512, 370
3100, 256, 253
7292, 512, 497
1056, 128, 115
5012, 512, 356
11428, 1024, 665
3896, 256, 289
6684, 512, 467
1320, 128, 136
5344, 512, 366
5508, 512, 387
3352, 256, 274
2192, 256, 189
7400, 512, 518
6468, 512, 449
3504, 256, 280
7608, 512, 520
5180, 512, 353
5524, 512, 391
9536, 1024, 543
7040, 512, 481
3376, 256, 266
6728, 512, 451
6540, 512, 436
6632, 512, 456
2388, 256, 205
1956, 256, 153
3032, 256, 249
12376, 1024, 738
4368, 512, 289
6268, 512, 420
6368, 512, 433
5296, 512, 359
1688, 128, 154
7004, 512, 473
5468, 512, 384
1132, 128, 118
1276, 128, 130
4632, 512, 319
5108, 512, 351
6492, 512, 440
6852, 512, 462
3224, 256, 263
7448, 512, 515
3624, 256, 283
7396, 512, 516
5180, 512, 348
688, 64, 91
2604, 256, 221
6944, 512, 479
7176, 512, 497
2816, 256, 226
1128, 128, 120
6040, 512, 404
1608, 128, 163
2892, 256, 238
3332, 256, 274
6336, 512, 424
852, 64, 103
5224, 512, 356
2324, 256, 194
2700, 256, 222
5016, 512, 354
6288, 512, 428
6784, 512, 458
972, 128, 108
2076, 128, 196
2588, 256, 226
6648, 512, 457
3452, 256, 287
2256, 256, 190
5764, 512, 405
1452, 128, 151
1120, 128, 118
1320, 128, 136
11396, 1024, 660
2348, 256, 200
7276, 512, 506
3456, 256, 284
7248, 512, 495
3196, 256, 260
6912, 512, 466
6352, 512, 443
6108, 512, 409
4888, 512, 325
6124, 512, 399
2348, 256, 196
6052, 512, 402
2276, 256, 184
3284, 256, 272
3228, 256, 263
2480, 256, 216
3144, 256, 260
2920, 256, 232
3284, 256, 276
1144, 128, 123
1108, 128, 116
6412, 512, 435
3140, 256, 264
5588, 512, 386
6280, 512, 419
5564, 512, 392
3032, 256, 245
6740, 512, 458
3840, 256, 286
1512, 128, 154
6640, 512, 453
6204, 512, 417
3000, 256, 247
12436, 1024, 749
10544, 1024, 620
2740, 256, 218
3144, 256, 256
2692, 256, 218
6184, 512, 438
6824, 512, 455
7392, 512, 515
6932, 512, 471
2852, 256, 230
2724, 256, 219
5400, 512, 372
6168, 512, 412
11684, 1024, 692
2364, 256, 203
6780, 512, 456
11736, 1024, 675
1560, 128, 152
3088, 256, 256
7196, 512, 497
2572, 256, 223
2496, 256, 214
4684, 512, 320
11888, 1024, 684
5184, 512, 351
5704, 512, 408
516, 32, 78
6716, 512, 459
5604, 512, 393
6848, 512, 471
2400, 256, 199
1984, 256, 163
3076, 256, 257
1360, 128, 142
544, 64, 78
6512, 512, 445
2484, 256, 214
2892, 256, 236
2692, 256, 215
1060, 128, 109
6112, 512, 409
5968, 512, 407
3052, 256, 246
3116, 256, 259
3680, 256, 294
4412, 512, 300
2028, 256, 166
12088, 1024, 725
2644, 256, 226
5316, 512, 366
2632, 256, 220
1668, 128, 174
2332, 256, 196
7176, 512, 485
5768, 512, 409
3388, 256, 275
5728, 512, 393
10696, 1024, 627
5316, 512, 364
5244, 512, 360
5756, 512, 395
4464, 512, 299
2420, 256, 210
2420, 256, 207
7052, 512, 479
3032, 256, 249
4948, 512, 335
5448, 512, 378
6616, 512, 451
6428, 512, 439
3100, 256, 255
3980, 256, 305
4352, 512, 291
3252, 256, 265
7004, 512, 472
7144, 512, 486
3296, 256, 267
11912, 1024, 703
7208, 512, 495
5416, 512, 380
3168, 256, 267
5084, 512, 351
4944, 512, 333
3808, 256, 290
1176, 128, 121
6272, 512, 418
12264, 1024, 730
2236, 256, 185
2756, 256, 223
6912, 512, 477
7324, 512, 515
5480, 512, 386
3148, 256, 260
4396, 512, 302
3252, 256, 273
4636, 512, 320
1416, 128, 145
3076, 256, 254
2468, 256, 212
6832, 512, 474
2396, 256, 208
2528, 256, 213
5088, 512, 346
3012, 256, 243
6552, 512, 439
2532, 256, 211
7276, 512, 503
4540, 512, 307
5080, 512, 344
6596, 512, 454
2336, 256, 194
5288, 512, 364
6740, 512, 458
4548, 512, 304
6308, 512, 422
4744, 512, 330
3308, 256, 270
3784, 256, 287
1460, 128, 153
4180, 256, 320
2616, 256, 220
1464, 128, 145
6280, 512, 416
3392, 256, 280
5028, 512, 343
3076, 256, 254
3044, 256, 246
2152, 256, 184
6480, 512, 434
11488, 1024, 677
5508, 512, 385
11792, 1024, 688
2020, 256, 168
2940, 256, 237
3756, 256, 313
2584, 256, 215
3208, 256, 264
1136, 128, 122
2440, 256, 208
7136, 512, 490
5744, 512, 401
7180, 512, 498
3104, 256, 250
5520, 512, 384
2808, 256, 228
3380, 256, 282
5328, 512, 383
6880, 512, 469
2244, 256, 190
1352, 128, 137
6380, 512, 436
1132, 128, 122
2892, 256, 237
3084, 256, 255
972, 128, 101
3364, 256, 278
6520, 512, 450
5940, 512, 428
1412, 128, 147
2912, 256, 234
5392, 512, 379
5648, 512, 401
2396, 256, 200
5504, 512, 394
6444, 512, 440
6468, 512, 446
6912, 512, 462
2928, 256, 238
3064, 256, 252
3024, 256, 247
3300, 256, 268
6392, 512, 438
3092, 256, 252
1604, 128, 168
5508, 512, 382
6280, 512, 421
6428, 512, 440
6736, 512, 463
2360, 256, 199
6408, 512, 435
2356, 256, 200
5460, 512, 382
6040, 512, 400
5396, 512, 374
2456, 256, 206
12068, 1024, 721
3056, 256, 245
2852, 256, 232
904, 64, 111
11680, 1024, 673
2548, 256, 213
2780, 256, 232
6476, 512, 444
680, 64, 87
3292, 256, 276
6716, 512, 459
1352, 128, 140
2216, 256, 179
2372, 256, 195
3808, 256, 308
6808, 512, 460
7012, 512, 482
4276, 512, 284
3188, 256, 265
5676, 512, 398
7180, 512, 490
6504, 512, 442
2180, 256, 175
3032, 256, 243
12128, 1024, 712
2300, 256, 190
6428, 512, 436
1420, 128, 149
6408, 512, 432
5712, 512, 405
7244, 512, 499
1488, 128, 146
5344, 512, 372
2440, 256, 208
3292, 256, 275
2532, 256, 218
6296, 512, 421
5376, 512, 373
3760, 256, 301
1700, 128, 157
5104, 512, 350
6416, 512, 439
3324, 256, 278
2716, 256, 217
5048, 512, 337
3208, 256, 270
5856, 512, 423
1308, 128, 133
6896, 512, 462
6324, 512, 425
924, 128, 100
2108, 256, 177
4036, 256, 303
3308, 256, 268
2588, 256, 213
7024, 512, 477
3296, 256, 266
5404, 512, 379
2764, 256, 224
10044, 1024, 587
576, 64, 79
9572, 1024, 541
5556, 512, 396
6304, 512, 432
5172, 512, 359
1300, 128, 131
2484, 256, 211
4704, 512, 322
6368, 512, 433
5428, 512, 377
6860, 512, 463
1484, 128, 155
2464, 256, 212
6788, 512, 466
1352, 128, 139
6844, 512, 463
3704, 256, 298
2968, 256, 243
6900, 512, 470
5408, 512, 386
2752, 256, 223
6128, 512, 409
4604, 512, 312
1352, 128, 137
6984, 512, 467
5472, 512, 384
2540, 256, 213
1436, 128, 153
11796, 1024, 691
2452, 256, 208
7068, 512, 484
2852, 256, 231
2520, 256, 211
7352, 512, 511
5044, 512, 343
6948, 512, 474
6532, 512, 450
3168, 256, 260
2532, 256, 221
1456, 128, 153
2288, 256, 190
6820, 512, 454
5492, 512, 390
948, 128, 97
5496, 512, 389
5028, 512, 343
7072, 512, 485
9856, 1024, 568
6388, 512, 435
6924, 512, 474
1464, 128, 151
6420, 512, 435
1024, 128, 111
3416, 256, 284
4780, 512, 322
6336, 512, 429
3564, 256, 291
5388, 512, 371
3388, 256, 278
1328, 128, 137
5216, 512, 366
6876, 512, 462
3152, 256, 257
7080, 512, 487
7036, 512, 481
6476, 512, 448
2932, 256, 235
2360, 256, 202
2504, 256, 209
5452, 512, 379
10416, 1024, 612
7184, 512, 492
5364, 512, 370
3072, 256, 253
1316, 128, 134
2272, 256, 197
560, 64, 75
6644, 512, 457
4720, 512, 324
5368, 512, 375
5424, 512, 380
3188, 256, 261
11820, 1024, 689
10120, 1024, 577
15988, 1024, 946
5420, 512, 375
1424, 128, 145
408, 32, 68
3036, 256, 248
6896, 512, 468
3116, 256, 253
3176, 256, 263
5272, 512, 359
7172, 512, 493
1496, 128, 149
2992, 256, 238
6092, 512, 401
6608, 512, 448
3064, 256, 251
6764, 512, 458
5152, 512, 357
3372, 256, 290
6184, 512, 418
6372, 512, 434
5376, 512, 376
1324, 128, 133
3476, 256, 289
3048, 256, 248
2300, 256, 192
2588, 256, 216
5268, 512, 358
2236, 256, 187
2504, 256, 209
3076, 256, 254
3312, 256, 280
3372, 256, 279
2992, 256, 243
5408, 512, 375
3488, 256, 288
6848, 512, 466
3208, 256, 266
3192, 256, 266
7188, 512, 491
1256, 128, 125
3996, 256, 301
4920, 512, 326
7336, 512, 502
5292, 512, 360
11300, 1024, 650
7096, 512, 490
2200, 256, 190
5264, 512, 359
5000, 512, 336
7060, 512, 481
3052, 256, 253
2464, 256, 204
1480, 128, 148
2452, 256, 209
5400, 512, 377
5128, 512, 352
3468, 256, 291
11448, 1024, 667
5764, 512, 410
6356, 512, 430
6472, 512, 440
