6816, 512, 466
2836, 256, 231
4388, 256, 342
4760, 512, 334
7192, 512, 499
5376, 512, 365
3212, 256, 267
1420, 128, 144
2496, 256, 214
2376, 256, 203
2872, 256, 235
1848, 128, 176
1404, 128, 148
6364, 512, 433
5196, 512, 360
5596, 512, 398
2644, 256, 225
6928, 512, 465
1388, 128, 147
7044, 512, 478
6756, 512, 460
5124, 512, 350
3060, 256, 250
4848, 512, 331
6788, 512, 447
2944, 256, 239
2920, 256, 231
1328, 128, 138
6824, 512, 461
6744, 512, 467
5364, 512, 373
3072, 256, 252
5272, 512, 358
2320, 256, 194
11904, 1024, 700
7280, 512, 503
9224, 1024, 501
6840, 512, 469
2340, 256, 192
4932, 512, 324
5412, 512, 382
6488, 512, 447
1444, 128, 153
4856, 512, 333
6384, 512, 437
2708, 256, 223
6860, 512, 475
2872, 256, 236
5292, 512, 365
9972, 1024, 568
7248, 512, 499
1124, 128, 111
5520, 512, 390
6404, 512, 434
3136, 256, 260
7312, 512, 511
1064, 128, 119
3152, 256, 261
10316, 1024, 593
3096, 256, 253
2300, 256, 189
6744, 512, 448
1368, 128, 140
2916, 256, 236
640, 64, 89
2972, 256, 248
2476, 256, 202
6004, 512, 396
2468, 256, 210
5304, 512, 371
1628, 128, 167
2092, 256, 174
984, 128, 106
1516, 128, 157
3240, 256, 264
3972, 256, 328
12296, 1024, 738
6076, 512, 403
6424, 512, 434
1276, 128, 129
5356, 512, 371
6476, 512, 444
3420, 256, 287
3120, 256, 253
5328, 512, 372
2960, 256, 239
2624, 256, 221
3008, 256, 244
688, 64, 90
3292, 256, 274
6728, 512, 452
6024, 512, 393
5376, 512, 364
5712, 512, 404
6176, 512, 408
1688, 128, 154
3156, 256, 260
3180, 256, 263
3452, 256, 272
7012, 512, 475
3068, 256, 253
2892, 256, 229
6984, 512, 464
3188, 256, 266
3632, 256, 268
3120, 256, 259
6456, 512, 442
2212, 256, 184
3808, 256, 308
2916, 256, 236
7012, 512, 473
3168, 256, 261
1268, 128, 127
2964, 256, 242
5280, 512, 363
6296, 512, 419
7192, 512, 498
5440, 512, 376
7472, 512, 518
1648, 128, 173
1292, 128, 129
4544, 512, 306
572, 64, 78
1728, 128, 173
6564, 512, 453
7856, 512, 519
7372, 512, 505
1384, 128, 140
5132, 512, 353
7228, 512, 501
5888, 512, 417
5428, 512, 384
2472, 256, 213
5456, 512, 385
6828, 512, 459
6180, 512, 438
1192, 128, 121
3368, 256, 280
3988, 256, 307
5080, 512, 355
9672, 1024, 550
1972, 256, 158
7300, 512, 497
2872, 256, 236
3540, 256, 285
5212, 512, 352
3108, 256, 255
1664, 128, 154
5460, 512, 382
6652, 512, 449
3216, 256, 268
1324, 128, 134
6332, 512, 428
3496, 256, 282
3028, 256, 246
3224, 256, 270
2572, 256, 220
1732, 128, 177
2344, 256, 194
7048, 512, 480
1244, 128, 123
6600, 512, 448
7056, 512, 473
2904, 256, 238
3156, 256, 258
2944, 256, 248
6932, 512, 477
6844, 512, 461
3004, 256, 247
7020, 512, 484
1612, 128, 161
2808, 256, 229
3584, 256, 295
5532, 512, 395
4992, 512, 356
5484, 512, 382
7272, 512, 495
5460, 512, 385
2096, 256, 173
7376, 512, 507
3860, 256, 290
2836, 256, 230
7144, 512, 497
7008, 512, 479
2096, 256, 174
2180, 128, 206
6828, 512, 464
6992, 512, 483
3152, 256, 258
5716, 512, 400
2904, 256, 242
3176, 256, 267
6024, 512, 393
5484, 512, 385
3184, 256, 264
1268, 128, 128
5396, 512, 380
4912, 512, 339
5208, 512, 354
6408, 512, 435
6804, 512, 463
1320, 128, 136
780, 64, 104
1548, 128, 159
3848, 256, 307
4588, 512, 313
6504, 512, 438
6152, 512, 419
6468, 512, 444
3140, 256, 265
5520, 512, 388
3172, 256, 259
2260, 256, 182
2664, 256, 216
3368, 256, 277
3052, 256, 250
580, 64, 80
5376, 512, 374
348, 32, 61
2272, 256, 193
5444, 512, 382
7100, 512, 486
6360, 512, 432
12220, 1024, 730
3100, 256, 260
2360, 256, 200
6872, 512, 464
7128, 512, 485
5972, 512, 388
2348, 256, 197
5560, 512, 393
3152, 256, 258
1944, 128, 180
5392, 512, 373
4640, 512, 319
2340, 256, 198
1508, 128, 155
6636, 512, 465
3092, 256, 257
12212, 1024, 732
4464, 512, 304
5528, 512, 390
7196, 512, 501
6708, 512, 448
2432, 256, 206
3216, 256, 269
5152, 512, 352
7456, 512, 514
6904, 512, 474
1316, 128, 135
12228, 1024, 729
5492, 512, 388
5276, 512, 357
7044, 512, 477
5444, 512, 381
5436, 512, 378
604, 64, 85
588, 64, 82
6160, 512, 432
5208, 512, 357
5188, 512, 355
6956, 512, 472
5660, 512, 398
1488, 128, 156
7228, 512, 501
3076, 256, 248
2280, 256, 185
5312, 512, 366
6140, 512, 431
884, 64, 107
1600, 128, 158
5460, 512, 385
6028, 512, 397
1200, 128, 122
2432, 256, 205
5012, 512, 346
7148, 512, 492
7140, 512, 497
2136, 256, 180
2364, 256, 203
5448, 512, 387
7092, 512, 489
5292, 512, 359
2612, 256, 222
6288, 512, 417
1528, 128, 154
10156, 1024, 603
3004, 256, 242
3156, 256, 261
5292, 512, 361
5592, 512, 388
3244, 256, 267
2304, 256, 194
5772, 512, 400
11808, 1024, 692
5372, 512, 373
1836, 128, 184
1452, 128, 151
7196, 512, 498
1432, 128, 148
6928, 512, 475
1472, 128, 153
3312, 256, 276
1236, 128, 127
5408, 512, 378
6484, 512, 438
1576, 128, 166
5832, 512, 414
1160, 128, 127
3228, 256, 270
3056, 256, 249
3968, 256, 301
5428, 512, 382
1504, 128, 159
6164, 512, 412
6864, 512, 464
4612, 512, 319
3020, 256, 244
6744, 512, 455
1916, 128, 178
3080, 256, 254
6864, 512, 470
6460, 512, 440
6008, 512, 396
1392, 128, 144
7200, 512, 498
3448, 256, 285
7108, 512, 488
1256, 128, 132
1360, 128, 139
2592, 256, 225
6656, 512, 446
1472, 128, 153
5400, 512, 376
10456, 1024, 615
5148, 512, 356
2100, 128, 198
3296, 256, 261
3364, 256, 277
1328, 128, 137
3324, 256, 282
7044, 512, 477
5204, 512, 354
9692, 1024, 545
5380, 512, 370
1368, 128, 143
4672, 512, 318
1604, 128, 148
2748, 256, 221
3216, 256, 271
2400, 256, 201
1996, 256, 163
3044, 256, 246
1452, 128, 152
3184, 256, 264
2752, 256, 225
3264, 256, 268
1228, 128, 126
3076, 256, 254
2880, 256, 238
2920, 256, 243
6344, 512, 431
5912, 512, 421
5380, 512, 370
5012, 512, 339
12196, 1024, 730
3116, 256, 260
5096, 512, 366
956, 128, 105
5324, 512, 363
2116, 256, 177
6700, 512, 463
4824, 512, 328
7004, 512, 476
2444, 256, 208
1984, 256, 164
1348, 128, 139
2304, 256, 190
6956, 512, 470
2808, 256, 231
620, 64, 86
7152, 512, 487
7048, 512, 479
6508, 512, 451
2672, 256, 222
3012, 256, 253
6660, 512, 457
1636, 128, 166
1336, 128, 140
2560, 256, 216
5412, 512, 377
2904, 256, 238
6536, 512, 442
2988, 256, 237
6692, 512, 445
964, 128, 100
3108, 256, 257
4704, 512, 325
5008, 512, 338
7096, 512, 490
2280, 256, 187
3064, 256, 244
640, 64, 89
6932, 512, 481
11804, 1024, 693
7216, 512, 502
6516, 512, 445
2172, 128, 203
6596, 512, 450
2808, 256, 224
568, 32, 86
3052, 256, 245
6892, 512, 466
4208, 512, 273
2736, 256, 233
3204, 256, 266
2288, 256, 186
5580, 512, 394
7072, 512, 481
6436, 512, 438
1424, 128, 142
6384, 512, 428
1440, 128, 151
3408, 256, 283
2844, 256, 229
3048, 256, 247
3472, 256, 288
3084, 256, 250
3228, 256, 271
11136, 1024, 640
3008, 256, 251
2724, 256, 233
2808, 256, 240
4648, 512, 316
912, 128, 100
5728, 512, 408
5296, 512, 361
5464, 512, 383
6136, 512, 412
2816, 256, 248
11828, 1024, 687
4828, 512, 329
7252, 512, 501
5292, 512, 362
1316, 128, 135
2044, 256, 173
3000, 256, 249
6076, 512, 408
7088, 512, 483
3280, 256, 279
6388, 512, 437
6716, 512, 459
3324, 256, 282
3164, 256, 260
3056, 256, 249
7072, 512, 484
5492, 512, 386
2576, 256, 220
7112, 512, 489
1680, 128, 155
4980, 512, 330
5352, 512, 371
3236, 256, 270
3348, 256, 283
5460, 512, 378
2776, 256, 238
1936, 128, 183
3076, 256, 253
3256, 256, 268
1328, 128, 137
3056, 256, 254
5384, 512, 378
4772, 512, 326
6916, 512, 466
2844, 256, 229
3260, 256, 274
5304, 512, 364
3288, 256, 273
6608, 512, 456
5392, 512, 373
6956, 512, 467
1396, 128, 143
3068, 256, 251
3024, 256, 246
3388, 256, 279
3088, 256, 255
7380, 512, 516
5300, 512, 363
7024, 512, 473
6796, 512, 460
3040, 256, 246
3008, 256, 242
3524, 256, 301
5364, 512, 374
12116, 1024, 721
7272, 512, 501
6344, 512, 426
4624, 512, 317
3072, 256, 255
1296, 128, 132
3020, 256, 245
2036, 256, 164
2240, 256, 186
7188, 512, 501
1556, 128, 161
2404, 256, 206
2324, 256, 195
2864, 256, 233
6808, 512, 455
6952, 512, 467
7504, 512, 512
9580, 1024, 538
4924, 512, 348
2060, 256, 169
1540, 128, 159
1192, 128, 129
7368, 512, 505
3116, 256, 259
3396, 256, 285
6052, 512, 408
5496, 512, 390
7164, 512, 494
6540, 512, 442
1312, 128, 134
1268, 128, 128
6668, 512, 445
2404, 256, 199
3752, 256, 306
5296, 512, 365
2476, 256, 206
3104, 256, 255
4624, 512, 317
5104, 512, 345
5312, 512, 364
3072, 256, 253
6536, 512, 444
2248, 256, 189
6316, 512, 424
2996, 256, 249
2464, 256, 212
4744, 512, 330
4696, 512, 322
5372, 512, 374
6692, 512, 464
10060, 1024, 567
9632, 1024, 545
3332, 256, 274
3052, 256, 248
3324, 256, 272
2332, 256, 197
6040, 512, 402
2316, 256, 193
3292, 256, 278
6840, 512, 470
2880, 256, 234
5284, 512, 362
3412, 256, 287
1732, 128, 159
7116, 512, 490
1004, 128, 107
7136, 512, 496
892, 64, 109
1476, 128, 154
6352, 512, 422
576, 64, 79
1332, 128, 139
3136, 256, 259
4444, 512, 307
6384, 512, 429
6596, 512, 459
6232, 512, 418
2796, 256, 229
1984, 256, 160
9716, 1024, 554
3356, 256, 266
5356, 512, 373
4980, 512, 350
3180, 256, 264
3216, 256, 267
6760, 512, 450
5332, 512, 370
3232, 256, 272
5200, 512, 355
6816, 512, 472
7404, 512, 510
5548, 512, 383
3032, 256, 247
3184, 256, 266
5312, 512, 361
6928, 512, 466
5648, 512, 395
5576, 512, 393
7048, 512, 480
7272, 512, 499
6752, 512, 450
6412, 512, 435
4640, 512, 321
4976, 512, 353
5344, 512, 370
7068, 512, 487
3052, 256, 248
14544, 1024, 859
5284, 512, 359
5428, 512, 377
1728, 128, 174
5740, 512, 407
3004, 256, 245
6504, 512, 447
6408, 512, 435
3408, 256, 285
6992, 512, 480
3068, 256, 253
1484, 128, 155
5980, 512, 389
2928, 256, 249
3008, 256, 249
1140, 128, 123
3228, 256, 256
6648, 512, 450
4364, 512, 293
6856, 512, 456
2936, 256, 246
3152, 256, 263
2280, 256, 185
4532, 512, 303
3176, 256, 263
1168, 128, 126
5468, 512, 378
6804, 512, 455
3820, 256, 304
3508, 256, 277
3320, 256, 271
696, 64, 91
3084, 256, 251
3096, 256, 248
2968, 256, 243
6536, 512, 451
6964, 512, 480
6316, 512, 424
6656, 512, 447
7176, 512, 493
12132, 1024, 713
6920, 512, 457
6608, 512, 448
6032, 512, 402
3324, 256, 268
7192, 512, 497
6364, 512, 432
2276, 256, 186
12076, 1024, 716
5056, 512, 345
3036, 256, 252
4368, 512, 291
6368, 512, 438
3096, 256, 255
5128, 512, 352
5432, 512, 380
6004, 512, 400
2648, 256, 209
6856, 512, 462
7488, 512, 522
1204, 128, 124
8596, 512, 546
1812, 128, 168
5448, 512, 382
6868, 512, 472
5392, 512, 372
5464, 512, 383
7272, 512, 490
1560, 128, 162
6008, 512, 395
4948, 512, 337
3344, 256, 274
3324, 256, 282
7528, 512, 519
5976, 512, 414
7136, 512, 485
5200, 512, 353
1252, 128, 129
10676, 1024, 630
1136, 128, 119
3160, 256, 262
6460, 512, 444
1008, 128, 107
5376, 512, 370
5844, 512, 402
3232, 256, 262
1212, 128, 129
2364, 256, 199
1312, 128, 133
3276, 256, 273
5176, 512, 353
3436, 256, 289
5204, 512, 351
4984, 512, 353
12200, 1024, 726
2936, 256, 246
1312, 128, 134
11152, 1024, 669
7104, 512, 489
3328, 256, 275
11264, 1024, 651
5188, 512, 349
3180, 256, 267
1404, 128, 142
5424, 512, 377
11996, 1024, 718
6168, 512, 415
3056, 256, 250
2872, 256, 242
7116, 512, 479
1928, 128, 183
4812, 512, 335
7204, 512, 500
3080, 256, 251
1108, 128, 120
2852, 256, 234
6824, 512, 460
6700, 512, 466
2696, 256, 213
5580, 512, 388
4344, 512, 291
5404, 512, 373
2108, 128, 198
3376, 256, 273
3056, 256, 249
2868, 256, 233
4372, 512, 292
5996, 512, 420
3028, 256, 248
5360, 512, 373
12096, 1024, 716
3220, 256, 271
5336, 512, 372
11900, 1024, 703
5384, 512, 371
2288, 256, 186
10332, 1024, 596
5384, 512, 371
2600, 256, 220
6644, 512, 457
6232, 512, 416
3368, 256, 280
5028, 512, 338
7212, 512, 492
5456, 512, 383
5320, 512, 372
3120, 256, 253
2392, 256, 201
7168, 512, 492
2604, 256, 221
724, 64, 98
3460, 256, 272
4616, 512, 315
5464, 512, 386
6264, 512, 419
212, 16, 48
1616, 128, 168
2296, 256, 190
3044, 256, 247
7268, 512, 501
1220, 128, 129
7832, 512, 534
2716, 256, 215
11740, 1024, 683
5304, 512, 367
1144, 128, 123
1256, 128, 132
2904, 256, 233
284, 32, 54
3332, 256, 274
3260, 256, 278
1400, 128, 147
1164, 128, 115
6316, 512, 424
1980, 128, 198
3300, 256, 273
9348, 1024, 523
6528, 512, 448
2976, 256, 245
6144, 512, 409
5636, 512, 396
4700, 512, 322
5052, 512, 345
3056, 256, 250
1444, 128, 149
7196, 512, 497
2188, 256, 178
5664, 512, 401
2968, 256, 248
4992, 512, 335
10684, 1024, 639
10180, 1024, 583
2364, 256, 198
5480, 512, 386
2676, 256, 229
1608, 128, 163
6252, 512, 421
5260, 512, 364
3560, 256, 298
3188, 256, 260
6840, 512, 459
10440, 1024, 606
7268, 512, 500
2376, 128, 222
544, 64, 75
1812, 128, 168
1508, 128, 145
6580, 512, 454
3288, 256, 274
2088, 256, 180
2180, 256, 187
3380, 256, 267
3236, 256, 271
4712, 512, 327
3480, 256, 294
12156, 1024, 719
1612, 128, 162
5120, 512, 360
2628, 256, 204
7352, 512, 495
6324, 512, 422
6520, 512, 446
3356, 256, 276
6892, 512, 472
4856, 512, 334
2344, 256, 197
2632, 256, 222
5976, 512, 424
5352, 512, 369
3032, 256, 248
4564, 512, 311
3112, 256, 258
2200, 256, 181
3092, 256, 254
6676, 512, 449
972, 128, 104
672, 64, 90
9892, 1024, 566
11576, 1024, 677
3080, 256, 256
4968, 512, 332
7028, 512, 478
5272, 512, 361
3024, 256, 247
6696, 512, 459
6956, 512, 476
4652, 512, 321
7508, 512, 509
504, 64, 73
7148, 512, 490
4696, 512, 323
2844, 256, 232
2328, 256, 195
5308, 512, 360
10688, 1024, 636
3092, 256, 258
5912, 512, 414
7244, 512, 510
3300, 256, 258
5596, 512, 391
3184, 256, 264
5520, 512, 382
3180, 256, 264
2496, 256, 220
6088, 512, 404
5304, 512, 367
2556, 256, 220
4084, 256, 315
3268, 256, 276
4692, 512, 329
6768, 512, 458
2956, 256, 248
3276, 256, 264
2068, 256, 175
5524, 512, 385
6492, 512, 438
7160, 512, 495
3264, 256, 272
5472, 512, 388
2296, 256, 188
2396, 256, 204
5504, 512, 391
3508, 256, 297
1576, 128, 156
2564, 256, 212
2316, 256, 190
6968, 512, 472
3452, 256, 279
3180, 256, 260
2592, 256, 212
4932, 512, 342
7092, 512, 485
9464, 1024, 533
5860, 512, 420
1272, 128, 129
6524, 512, 454
2684, 256, 230
6764, 512, 455
11156, 1024, 642
5560, 512, 394
3356, 256, 281
3056, 256, 250
3528, 256, 286
3080, 256, 252
4548, 512, 307
2088, 256, 177
656, 64, 87
1280, 128, 128
2520, 256, 222
5788, 512, 418
3140, 256, 258
5632, 512, 396
1228, 128, 126
252, 32, 48
6848, 512, 464
5568, 512, 396
6644, 512, 454
3288, 256, 274
2444, 256, 208
2068, 256, 174
7092, 512, 484
4320, 256, 316
4808, 512, 328
4220, 512, 281
3180, 256, 263
8108, 512, 546
12160, 1024, 720
7716, 512, 533
6432, 512, 432
5964, 512, 390
6856, 512, 462
5644, 512, 400
2964, 256, 242
3076, 256, 255
3008, 256, 251
1424, 128, 146
752, 64, 101
5396, 512, 376
6948, 512, 473
11884, 1024, 696
3188, 256, 265
5248, 512, 353
4416, 512, 302
2936, 256, 240
1316, 128, 134
6996, 512, 480
6728, 512, 461
4588, 512, 312
6396, 512, 433
9536, 1024, 531
3888, 256, 313
4768, 512, 327
760, 64, 102
4524, 512, 302
7120, 512, 491
1928, 256, 160
5300, 512, 362
7400, 512, 518
5308, 512, 364
2764, 256, 225
4228, 512, 272
4392, 512, 296
5360, 512, 374
4956, 512, 348
6064, 512, 405
6824, 512, 465
5268, 512, 358
6040, 512, 404
3124, 256, 255
3460, 256, 276
7084, 512, 489
1476, 128, 154
6948, 512, 472
4812, 512, 327
3124, 256, 261
5544, 512, 394
2356, 256, 198
7168, 512, 492
10644, 1024, 630
5172, 512, 358
6304, 512, 420
1300, 128, 137
3512, 256, 298
6376, 512, 427
4944, 512, 342
4420, 512, 298
4716, 512, 328
3304, 256, 268
3280, 256, 274
6060, 512, 423
3144, 256, 254
1068, 128, 114
6964, 512, 472
5276, 512, 357
5332, 512, 369
5380, 512, 376
1212, 128, 126
6352, 512, 422
3400, 256, 284
12024, 1024, 702
3216, 256, 262
4852, 512, 345
1220, 128, 122
5584, 512, 384
2868, 256, 234
3296, 256, 268
2264, 256, 188
7764, 512, 533
5264, 512, 359
3052, 256, 247
3052, 256, 249
3080, 256, 255
6920, 512, 478
2804, 256, 230
4000, 256, 327
5332, 512, 369
3248, 256, 274
11912, 1024, 703
1904, 256, 151
5464, 512, 385
2340, 256, 195
1984, 256, 158
1424, 128, 152
5256, 512, 357
6608, 512, 449
2672, 256, 229
3588, 256, 287
2504, 256, 212
3148, 256, 261
5512, 512, 386
4612, 512, 314
6116, 512, 413
5428, 512, 377
7012, 512, 474
2904, 256, 243
5852, 512, 421
6444, 512, 440
6476, 512, 447
2412, 256, 204
2628, 256, 209
3464, 256, 286
2048, 256, 172
2480, 256, 213
7048, 512, 479
5324, 512, 368
2844, 256, 234
5412, 512, 378
2892, 256, 233
6292, 512, 416
7152, 512, 488
7584, 512, 532
5592, 512, 393
3148, 256, 259
3024, 256, 242
3376, 256, 280
4436, 512, 295
6748, 512, 453
2824, 256, 236
7180, 512, 499
5140, 512, 349
6840, 512, 463
6984, 512, 477
4772, 512, 327
676, 64, 92
1052, 128, 115
364, 32, 63
10352, 1024, 597
1672, 128, 170
2712, 256, 217
7108, 512, 488
3156, 256, 262
4688, 512, 326
1432, 128, 147
3104, 256, 251
2552, 256, 215
2548, 256, 212
1020, 64, 120
3052, 256, 249
1096, 128, 121
6428, 512, 435
9400, 1024, 528
1752, 128, 178
3084, 256, 251
1308, 128, 134
6276, 512, 437
4784, 256, 372
3220, 256, 271
6156, 512, 411
5708, 512, 410
488, 64, 72
6284, 512, 417
1968, 128, 185
3068, 256, 253
7212, 512, 502
2144, 256, 181
2068, 256, 178
3100, 256, 256
3560, 256, 300
6772, 512, 459
2728, 256, 217
6172, 512, 405
3640, 256, 293
2648, 256, 226
3772, 256, 284
4624, 512, 315
1552, 128, 165
5328, 512, 369
3040, 256, 249
2264, 256, 188
3660, 256, 297
6272, 512, 425
2192, 256, 186
5160, 512, 355
7016, 512, 474
600, 64, 84
6492, 512, 437
3040, 256, 246
11796, 1024, 702
5424, 512, 374
7408, 512, 515
5452, 512, 377
4628, 512, 319
7212, 512, 501
2256, 256, 187
7404, 512, 515
1280, 128, 130
6524, 512, 443
6676, 512, 459
3148, 256, 256
3448, 256, 288
7232, 512, 498
5472, 512, 384
4908, 512, 329
5828, 512, 403
3044, 256, 249
6388, 512, 430
1028, 128, 108
3168, 256, 261
4600, 512, 311
11180, 1024, 644
1496, 128, 156
6588, 512, 458
11356, 1024, 659
5672, 512, 401
5244, 512, 359
6552, 512, 429
4716, 512, 328
6328, 512, 430
6924, 512, 479
7148, 512, 485
3484, 256, 284
5300, 512, 362
1448, 128, 151
424, 32, 68
2904, 256, 239
3424, 256, 288
2748, 256, 239
4756, 512, 333
3816, 256, 310
7116, 512, 490
2256, 256, 190
7080, 512, 486
1368, 128, 143
3052, 256, 248
3384, 256, 277
5476, 512, 385
3176, 256, 259
4292, 512, 284
2920, 256, 231
2956, 256, 241
7060, 512, 481
5464, 512, 388
4496, 512, 306
2880, 256, 236
10200, 1024, 590
5348, 512, 370
1420, 128, 146
3024, 256, 245
3236, 256, 272
2292, 256, 192
3368, 256, 275
3168, 256, 263
2892, 256, 237
2808, 256, 225
2704, 256, 229
2116, 256, 176
1300, 128, 136
824, 64, 99
6620, 512, 437
3024, 256, 243
6784, 512, 460
3392, 256, 284
1404, 128, 139
2840, 256, 232
1448, 128, 151
5408, 512, 375
1040, 128, 111
5452, 512, 380
7168, 512, 492
7600, 512, 527
6680, 512, 447
1308, 128, 133
1460, 128, 153
2892, 256, 241
6896, 512, 467
6436, 512, 437
5724, 512, 408
5776, 512, 402
3112, 256, 252
5192, 512, 362
3280, 256, 262
3304, 256, 278
2212, 256, 187
6972, 512, 470
3628, 256, 301
7096, 512, 481
4628, 512, 315
7596, 512, 492
6444, 512, 446
6856, 512, 456
4956, 512, 343
5700, 512, 390
3032, 256, 247
3384, 256, 281
4552, 512, 308
11816, 1024, 683
2768, 256, 225
508, 64, 74
3220, 256, 262
2712, 256, 217
5132, 512, 352
6312, 512, 422
4464, 512, 299
2872, 256, 235
6768, 512, 452
3048, 256, 251
14084, 1024, 802
2956, 256, 244
6932, 512, 468
2340, 256, 194
3244, 256, 271
6708, 512, 450
7100, 512, 492
5076, 512, 350
4692, 512, 322
3956, 256, 310
6908, 512, 469
7220, 512, 500
7124, 512, 484
2980, 256, 243
5348, 512, 368
5324, 512, 368
7140, 512, 486
692, 64, 91
2996, 256, 251
2520, 256, 216
6424, 512, 439
2236, 256, 184
5480, 512, 389
7280, 512, 511
552, 64, 79
6668, 512, 449
2992, 256, 249
4460, 512, 308
3144, 256, 259
3312, 256, 268
7096, 512, 486
5032, 512, 340
2092, 256, 174
3536, 256, 286
6300, 512, 420
3140, 256, 263
5092, 512, 351
1416, 128, 149
5588, 512, 391
3132, 256, 257
1436, 128, 148
6820, 512, 464
3048, 256, 248
3096, 256, 254
3048, 256, 253
2712, 256, 218
1116, 128, 122
6740, 512, 451
796, 64, 97
2336, 256, 198
4308, 512, 288
4540, 512, 302
3228, 256, 271
1764, 128, 177
12200, 1024, 726
1272, 128, 128
488, 64, 70
7200, 512, 498
2484, 256, 217
5288, 512, 360
5340, 512, 373
3172, 256, 262
7236, 512, 494
6744, 512, 452
5416, 512, 378
2648, 256, 222
5492, 512, 382
6448, 512, 440
1332, 128, 138
672, 64, 87
6564, 512, 441
2316, 256, 194
3052, 256, 245
3012, 256, 253
3084, 256, 256
6772, 512, 458
6288, 512, 425
5844, 512, 421
3092, 256, 252
2940, 256, 239
9628, 1024, 548
5368, 512, 375
628, 64, 87
3140, 256, 258
7000, 512, 470
2984, 256, 246
3080, 256, 251
3308, 256, 268
848, 64, 112
7264, 512, 503
3700, 256, 273
2500, 256, 217
7304, 512, 514
2752, 256, 236
7796, 512, 537
788, 64, 93
2956, 256, 240
3360, 256, 276
3212, 256, 272
5452, 512, 384
2756, 256, 223
1376, 128, 144
6852, 512, 466
7152, 512, 497
3344, 256, 280
4560, 512, 313
6476, 512, 442
2684, 256, 217
7420, 512, 522
5192, 512, 360
3036, 256, 248
556, 64, 75
5284, 512, 360
1436, 128, 149
6412, 512, 442
5468, 512, 387
1136, 128, 122
5504, 512, 382
7220, 512, 493
10616, 1024, 633
6444, 512, 439
3340, 256, 270
1128, 128, 120
6500, 512, 449
2408, 256, 210
12176, 1024, 720
6448, 512, 437
5184, 512, 360
2864, 256, 233
2612, 256, 219
7048, 512, 476
6964, 512, 474
1484, 128, 156
3692, 256, 311
1192, 128, 125
1600, 128, 161
7000, 512, 482
5376, 512, 380
2516, 256, 207
2304, 256, 201
2876, 256, 240
5232, 512, 361
1184, 128, 122
4556, 512, 309
5516, 512, 385
4372, 512, 282
7164, 512, 491
3300, 256, 274
6952, 512, 471
2312, 256, 197
2448, 256, 205
3792, 256, 304
11764, 1024, 687
2448, 256, 209
2524, 256, 218
2316, 256, 195
9600, 1024, 538
3016, 256, 244
5072, 512, 345
7512, 512, 514
3128, 256, 262
5276, 512, 358
1924, 128, 183
2376, 256, 197
1336, 128, 137
2076, 256, 181
7252, 512, 497
10324, 1024, 594
3000, 256, 246
5376, 512, 377
7016, 512, 478
3296, 256, 276
3500, 256, 291
5308, 512, 363
3120, 256, 254
3072, 256, 252
664, 64, 88
7032, 512, 474
1424, 128, 147
3444, 256, 293
3452, 256, 279
1564, 128, 154
7124, 512, 486
7408, 512, 516
2268, 256, 192
1712, 128, 171
5428, 512, 383
4656, 512, 317
10536, 1024, 620
6320, 512, 426
3408, 256, 284
3148, 256, 257
2880, 256, 237
2624, 256, 207
6964, 512, 477
3096, 256, 256
5660, 512, 399
4984, 512, 333
12096, 1024, 712
6760, 512, 454
4916, 512, 345
2456, 256, 211
2100, 128, 198
1404, 128, 145
9416, 1024, 531
6488, 512, 443
2648, 256, 230
6956, 512, 471
6412, 512, 422
1740, 128, 176
3368, 256, 279
3244, 256, 267
2948, 256, 234
6980, 512, 466
6948, 512, 470
5428, 512, 378
1080, 128, 113
3484, 256, 294
12036, 1024, 708
3476, 256, 290
5336, 512, 371
7120, 512, 496
3908, 256, 292
3404, 256, 282
3324, 256, 283
3040, 256, 250
3236, 256, 272
2960, 256, 241
3264, 256, 267
668, 64, 90
5564, 512, 385
2696, 256, 219
3496, 256, 298
6664, 512, 459
2084, 256, 171
2008, 256, 166
632, 64, 82
640, 64, 84
2232, 256, 184
2348, 256, 194
7684, 512, 544
5660, 512, 403
3124, 256, 261
3044, 256, 258
3176, 256, 263
3084, 256, 249
2368, 256, 202
7236, 512, 493
3468, 256, 272
2164, 256, 186
2272, 256, 193
1976, 256, 161
2044, 256, 169
3152, 256, 258
3088, 256, 256
14592, 1024, 848
4180, 512, 271
4308, 512, 284
3184, 256, 261
3176, 256, 268
2512, 256, 214
2720, 256, 233
7284, 512, 501
7032, 512, 479
6628, 512, 440
2396, 256, 197
3036, 256, 249
6216, 512, 416
4116, 256, 317
6748, 512, 463
7240, 512, 495
7072, 512, 481
3304, 256, 278
5688, 512, 384
3240, 256, 272
756, 64, 102
2020, 256, 167
7164, 512, 488
4576, 512, 311
1308, 128, 133
6824, 512, 456
7052, 512, 475
6180, 512, 416
13572, 1024, 771
2196, 256, 190
6176, 512, 412
3280, 256, 272
3056, 256, 249
3328, 256, 278
5180, 512, 359
7260, 512, 499
5536, 512, 399
6432, 512, 436
692, 64, 91
2932, 256, 235
5000, 512, 350
3108, 256, 252
3076, 256, 250
6128, 512, 409
6576, 512, 445
3172, 256, 265
7420, 512, 518
6116, 512, 432
5088, 512, 359
3016, 256, 244
7288, 512, 504
6448, 512, 441
6888, 512, 475
1068, 64, 126
6460, 512, 434
632, 64, 88
11780, 1024, 687
9600, 1024, 542
6904, 512, 474
764, 64, 97
10464, 1024, 617
4516, 512, 300
2484, 256, 213
3188, 256, 264
6388, 512, 432
1464, 128, 151
6876, 512, 468
492, 32, 79
4948, 512, 324
3496, 256, 294
2800, 256, 230
3196, 256, 261
6916, 512, 478
2864, 256, 236
3244, 256, 269
6844, 512, 465
5424, 512, 380
7004, 512, 468
2824, 256, 235
7140, 512, 485
6412, 512, 431
2896, 256, 230
7816, 512, 537
4696, 512, 323
3572, 256, 300
2452, 256, 211
3388, 256, 283
3268, 256, 273
6196, 512, 421
3168, 256, 265
748, 64, 90
14148, 1024, 817
4716, 512, 328
4664, 512, 324
5292, 512, 364
6404, 512, 441
5120, 512, 353
2264, 256, 183
4696, 512, 320
2884, 256, 238
2284, 256, 189
2124, 128, 197
2088, 128, 199
5236, 512, 361
2080, 256, 167
3504, 256, 295
2572, 256, 213
2960, 256, 242
2656, 256, 214
2756, 256, 223
10740, 1024, 623
4928, 512, 338
3080, 256, 250
1536, 128, 158
7056, 512, 476
5820, 512, 401
7132, 512, 487
1240, 128, 128
7192, 512, 496
3420, 256, 283
5236, 512, 363
4452, 512, 299
7568, 512, 524
5228, 512, 359
6604, 512, 458
12084, 1024, 714
6392, 512, 433
1496, 128, 149
7128, 512, 486
7380, 512, 516
2432, 256, 206
3140, 256, 257
3108, 256, 256
3068, 256, 252
7020, 512, 476
5320, 512, 367
2860, 256, 233
4332, 512, 286
3060, 256, 250
4844, 512, 340
3132, 256, 256
5348, 512, 365
5156, 512, 345
7188, 512, 497
1328, 128, 138
6340, 512, 430
616, 64, 84
3108, 256, 258
7160, 512, 501
5276, 512, 369
7324, 512, 505
5108, 512, 347
2952, 256, 239
1444, 128, 149
7108, 512, 482
5608, 512, 397
6748, 512, 448
5344, 512, 368
5344, 512, 365
5296, 512, 358
6736, 512, 451
2900, 256, 237
6340, 512, 430
5868, 512, 407
2288, 256, 187
7144, 512, 496
1340, 128, 136
2828, 256, 228
3096, 256, 258
3192, 256, 267
2744, 256, 217
4872, 512, 347
3072, 256, 249
2840, 256, 229
3128, 256, 255
7312, 512, 506
2588, 256, 216
4444, 512, 294
10376, 1024, 606
2400, 256, 205
3092, 256, 254
6964, 512, 467
820, 64, 96
3280, 256, 275
5808, 512, 419
9624, 1024, 545
3084, 256, 256
5196, 512, 356
5468, 512, 373
1320, 128, 136
2348, 256, 197
764, 64, 98
5228, 512, 360
6524, 512, 445
6528, 512, 449
4700, 512, 324
2372, 256, 202
5428, 512, 381
5300, 512, 363
2760, 256, 220
3036, 256, 248
6088, 512, 431
5372, 512, 369
3188, 256, 260
3256, 256, 271
6796, 512, 464
6328, 512, 427
13408, 1024, 748
7156, 512, 482
2500, 256, 211
5724, 512, 404
6008, 512, 397
5240, 512, 364
1428, 128, 146
1384, 128, 141
7604, 512, 521
2368, 256, 202
1300, 128, 131
6968, 512, 470
5648, 512, 399
5320, 512, 367
1480, 128, 155
5316, 512, 367
6812, 512, 457
2480, 256, 212
5460, 512, 386
5280, 512, 369
1412, 128, 143
5360, 512, 367
1576, 128, 157
5592, 512, 389
5552, 512, 392
7388, 512, 514
4996, 512, 332
1404, 128, 141
6996, 512, 470
6932, 512, 460
5436, 512, 378
3080, 256, 255
6684, 512, 462
2976, 256, 246
1388, 128, 141
6768, 512, 475
6940, 512, 469
3328, 256, 273
3140, 256, 264
3212, 256, 267
3044, 256, 253
6288, 512, 422
6508, 512, 450
6220, 512, 416
4392, 512, 297
1344, 128, 138
6792, 512, 463
6028, 512, 434
6172, 512, 409
3324, 256, 277
11492, 1024, 672
5284, 512, 358
6312, 512, 428
2896, 256, 241
11888, 1024, 708
1040, 128, 111
1488, 128, 145
5428, 512, 382
1408, 128, 146
3344, 256, 287
1392, 128, 146
5596, 512, 398
5476, 512, 385
7116, 512, 484
5256, 512, 366
2192, 256, 179
3136, 256, 263
5384, 512, 373
6308, 512, 423
5720, 512, 402
5556, 512, 394
3968, 256, 302
7112, 512, 489
5060, 512, 346
6888, 512, 460
5368, 512, 373
3160, 256, 259
3056, 256, 246
4508, 512, 300
3212, 256, 266
4816, 512, 336
3336, 256, 275
3248, 256, 269
3384, 256, 282
2592, 256, 203
3372, 256, 279
2676, 256, 211
10200, 1024, 594
480, 32, 74
3120, 256, 255
5408, 512, 378
7172, 512, 492
1412, 128, 149
6984, 512, 485
7088, 512, 484
14632, 1024, 866
6508, 512, 450
5312, 512, 365
5436, 512, 379
5412, 512, 374
588, 64, 82
1360, 128, 141
4508, 256, 341
6380, 512, 431
6808, 512, 463
2276, 256, 188
2412, 256, 207
